aluno2/simulation/qsim/PBLSD.msim.vcd
$comment
	File created using the following command:
		vcd file PBLSD.msim.vcd -direction
$end
$date
	Thu Sep 07 22:32:33 2023
$end
$version
	ModelSim Version 2020.1
$end
$timescale
	1ps
$end

$scope module ESCALONADOR_V3_vlg_vec_tst $end
$var reg 1 ! clk $end
$var reg 128 " sensor_bus [127:0] $end
$var reg 8 # sensor_ready [7:0] $end
$var reg 1 $ uart_tx_done $end
$var wire 1 % data_to_send [15] $end
$var wire 1 & data_to_send [14] $end
$var wire 1 ' data_to_send [13] $end
$var wire 1 ( data_to_send [12] $end
$var wire 1 ) data_to_send [11] $end
$var wire 1 * data_to_send [10] $end
$var wire 1 + data_to_send [9] $end
$var wire 1 , data_to_send [8] $end
$var wire 1 - data_to_send [7] $end
$var wire 1 . data_to_send [6] $end
$var wire 1 / data_to_send [5] $end
$var wire 1 0 data_to_send [4] $end
$var wire 1 1 data_to_send [3] $end
$var wire 1 2 data_to_send [2] $end
$var wire 1 3 data_to_send [1] $end
$var wire 1 4 data_to_send [0] $end
$var wire 1 5 data_used [7] $end
$var wire 1 6 data_used [6] $end
$var wire 1 7 data_used [5] $end
$var wire 1 8 data_used [4] $end
$var wire 1 9 data_used [3] $end
$var wire 1 : data_used [2] $end
$var wire 1 ; data_used [1] $end
$var wire 1 < data_used [0] $end
$var wire 1 = sensor_num [2] $end
$var wire 1 > sensor_num [1] $end
$var wire 1 ? sensor_num [0] $end
$var wire 1 @ state $end
$var wire 1 A uart_tx_en $end

$scope module i1 $end
$var wire 1 B gnd $end
$var wire 1 C vcc $end
$var wire 1 D unknown $end
$var tri1 1 E devclrn $end
$var tri1 1 F devpor $end
$var tri1 1 G devoe $end
$var wire 1 H data_to_send[0]~output_o $end
$var wire 1 I data_to_send[1]~output_o $end
$var wire 1 J data_to_send[2]~output_o $end
$var wire 1 K data_to_send[3]~output_o $end
$var wire 1 L data_to_send[4]~output_o $end
$var wire 1 M data_to_send[5]~output_o $end
$var wire 1 N data_to_send[6]~output_o $end
$var wire 1 O data_to_send[7]~output_o $end
$var wire 1 P data_to_send[8]~output_o $end
$var wire 1 Q data_to_send[9]~output_o $end
$var wire 1 R data_to_send[10]~output_o $end
$var wire 1 S data_to_send[11]~output_o $end
$var wire 1 T data_to_send[12]~output_o $end
$var wire 1 U data_to_send[13]~output_o $end
$var wire 1 V data_to_send[14]~output_o $end
$var wire 1 W data_to_send[15]~output_o $end
$var wire 1 X data_used[0]~output_o $end
$var wire 1 Y data_used[1]~output_o $end
$var wire 1 Z data_used[2]~output_o $end
$var wire 1 [ data_used[3]~output_o $end
$var wire 1 \ data_used[4]~output_o $end
$var wire 1 ] data_used[5]~output_o $end
$var wire 1 ^ data_used[6]~output_o $end
$var wire 1 _ data_used[7]~output_o $end
$var wire 1 ` uart_tx_en~output_o $end
$var wire 1 a sensor_num[0]~output_o $end
$var wire 1 b sensor_num[1]~output_o $end
$var wire 1 c sensor_num[2]~output_o $end
$var wire 1 d state~output_o $end
$var wire 1 e sensor_bus[96]~input_o $end
$var wire 1 f clk~input_o $end
$var wire 1 g clk~inputclkctrl_outclk $end
$var wire 1 h uart_tx_done~input_o $end
$var wire 1 i sensor_ready[5]~input_o $end
$var wire 1 j sensor_ready[7]~input_o $end
$var wire 1 k sensor_ready[6]~input_o $end
$var wire 1 l sensor_ready[4]~input_o $end
$var wire 1 m sensor_num[1]~2_combout $end
$var wire 1 n sensor_num[1]~reg0_q $end
$var wire 1 o Mux0~0_combout $end
$var wire 1 p Mux0~1_combout $end
$var wire 1 q sensor_ready[3]~input_o $end
$var wire 1 r sensor_ready[1]~input_o $end
$var wire 1 s sensor_ready[0]~input_o $end
$var wire 1 t sensor_ready[2]~input_o $end
$var wire 1 u Mux0~2_combout $end
$var wire 1 v Mux0~3_combout $end
$var wire 1 w state~2_combout $end
$var wire 1 x state~3_combout $end
$var wire 1 y state~reg0_q $end
$var wire 1 z sensor_num[2]~0_combout $end
$var wire 1 { sensor_num[0]~3_combout $end
$var wire 1 | sensor_num[0]~reg0_q $end
$var wire 1 } sensor_num[2]~1_combout $end
$var wire 1 ~ sensor_num[2]~reg0_q $end
$var wire 1 !! sensor_bus[32]~input_o $end
$var wire 1 "! sensor_bus[0]~input_o $end
$var wire 1 #! m16|y~2_combout $end
$var wire 1 $! sensor_bus[64]~input_o $end
$var wire 1 %! m16|y~3_combout $end
$var wire 1 &! sensor_bus[48]~input_o $end
$var wire 1 '! sensor_bus[16]~input_o $end
$var wire 1 (! m16|y~0_combout $end
$var wire 1 )! sensor_bus[80]~input_o $end
$var wire 1 *! sensor_bus[112]~input_o $end
$var wire 1 +! m16|y~1_combout $end
$var wire 1 ,! data_to_send~0_combout $end
$var wire 1 -! sensor_bus[33]~input_o $end
$var wire 1 .! sensor_bus[1]~input_o $end
$var wire 1 /! sensor_bus[65]~input_o $end
$var wire 1 0! m15|y~2_combout $end
$var wire 1 1! sensor_bus[97]~input_o $end
$var wire 1 2! m15|y~3_combout $end
$var wire 1 3! sensor_bus[49]~input_o $end
$var wire 1 4! sensor_bus[17]~input_o $end
$var wire 1 5! m15|y~0_combout $end
$var wire 1 6! sensor_bus[81]~input_o $end
$var wire 1 7! sensor_bus[113]~input_o $end
$var wire 1 8! m15|y~1_combout $end
$var wire 1 9! data_to_send~1_combout $end
$var wire 1 :! sensor_bus[66]~input_o $end
$var wire 1 ;! sensor_bus[2]~input_o $end
$var wire 1 <! m14|y~2_combout $end
$var wire 1 =! sensor_bus[98]~input_o $end
$var wire 1 >! sensor_bus[34]~input_o $end
$var wire 1 ?! m14|y~3_combout $end
$var wire 1 @! sensor_bus[82]~input_o $end
$var wire 1 A! sensor_bus[18]~input_o $end
$var wire 1 B! sensor_bus[50]~input_o $end
$var wire 1 C! m14|y~0_combout $end
$var wire 1 D! sensor_bus[114]~input_o $end
$var wire 1 E! m14|y~1_combout $end
$var wire 1 F! data_to_send~2_combout $end
$var wire 1 G! sensor_bus[99]~input_o $end
$var wire 1 H! sensor_bus[35]~input_o $end
$var wire 1 I! sensor_bus[3]~input_o $end
$var wire 1 J! sensor_bus[67]~input_o $end
$var wire 1 K! m13|y~2_combout $end
$var wire 1 L! m13|y~3_combout $end
$var wire 1 M! sensor_bus[51]~input_o $end
$var wire 1 N! sensor_bus[19]~input_o $end
$var wire 1 O! m13|y~0_combout $end
$var wire 1 P! sensor_bus[115]~input_o $end
$var wire 1 Q! sensor_bus[83]~input_o $end
$var wire 1 R! m13|y~1_combout $end
$var wire 1 S! data_to_send~3_combout $end
$var wire 1 T! sensor_bus[20]~input_o $end
$var wire 1 U! sensor_bus[52]~input_o $end
$var wire 1 V! m12|y~0_combout $end
$var wire 1 W! sensor_bus[84]~input_o $end
$var wire 1 X! sensor_bus[116]~input_o $end
$var wire 1 Y! m12|y~1_combout $end
$var wire 1 Z! sensor_bus[36]~input_o $end
$var wire 1 [! sensor_bus[100]~input_o $end
$var wire 1 \! sensor_bus[68]~input_o $end
$var wire 1 ]! sensor_bus[4]~input_o $end
$var wire 1 ^! m12|y~2_combout $end
$var wire 1 _! m12|y~3_combout $end
$var wire 1 `! data_to_send~4_combout $end
$var wire 1 a! sensor_bus[101]~input_o $end
$var wire 1 b! sensor_bus[37]~input_o $end
$var wire 1 c! sensor_bus[69]~input_o $end
$var wire 1 d! sensor_bus[5]~input_o $end
$var wire 1 e! m11|y~2_combout $end
$var wire 1 f! m11|y~3_combout $end
$var wire 1 g! sensor_bus[85]~input_o $end
$var wire 1 h! sensor_bus[21]~input_o $end
$var wire 1 i! sensor_bus[53]~input_o $end
$var wire 1 j! m11|y~0_combout $end
$var wire 1 k! sensor_bus[117]~input_o $end
$var wire 1 l! m11|y~1_combout $end
$var wire 1 m! data_to_send~5_combout $end
$var wire 1 n! sensor_bus[70]~input_o $end
$var wire 1 o! sensor_bus[6]~input_o $end
$var wire 1 p! m10|y~2_combout $end
$var wire 1 q! sensor_bus[38]~input_o $end
$var wire 1 r! sensor_bus[102]~input_o $end
$var wire 1 s! m10|y~3_combout $end
$var wire 1 t! sensor_bus[54]~input_o $end
$var wire 1 u! sensor_bus[22]~input_o $end
$var wire 1 v! m10|y~0_combout $end
$var wire 1 w! sensor_bus[86]~input_o $end
$var wire 1 x! sensor_bus[118]~input_o $end
$var wire 1 y! m10|y~1_combout $end
$var wire 1 z! data_to_send~6_combout $end
$var wire 1 {! sensor_bus[7]~input_o $end
$var wire 1 |! sensor_bus[71]~input_o $end
$var wire 1 }! m09|y~2_combout $end
$var wire 1 ~! sensor_bus[103]~input_o $end
$var wire 1 !" sensor_bus[39]~input_o $end
$var wire 1 "" m09|y~3_combout $end
$var wire 1 #" sensor_bus[119]~input_o $end
$var wire 1 $" sensor_bus[87]~input_o $end
$var wire 1 %" sensor_bus[55]~input_o $end
$var wire 1 &" sensor_bus[23]~input_o $end
$var wire 1 '" m09|y~0_combout $end
$var wire 1 (" m09|y~1_combout $end
$var wire 1 )" data_to_send~7_combout $end
$var wire 1 *" sensor_bus[40]~input_o $end
$var wire 1 +" sensor_bus[72]~input_o $end
$var wire 1 ," sensor_bus[8]~input_o $end
$var wire 1 -" m08|y~2_combout $end
$var wire 1 ." sensor_bus[104]~input_o $end
$var wire 1 /" m08|y~3_combout $end
$var wire 1 0" sensor_bus[24]~input_o $end
$var wire 1 1" sensor_bus[56]~input_o $end
$var wire 1 2" m08|y~0_combout $end
$var wire 1 3" sensor_bus[88]~input_o $end
$var wire 1 4" sensor_bus[120]~input_o $end
$var wire 1 5" m08|y~1_combout $end
$var wire 1 6" data_to_send~8_combout $end
$var wire 1 7" sensor_bus[73]~input_o $end
$var wire 1 8" sensor_bus[9]~input_o $end
$var wire 1 9" m07|y~2_combout $end
$var wire 1 :" sensor_bus[41]~input_o $end
$var wire 1 ;" sensor_bus[105]~input_o $end
$var wire 1 <" m07|y~3_combout $end
$var wire 1 =" sensor_bus[57]~input_o $end
$var wire 1 >" sensor_bus[25]~input_o $end
$var wire 1 ?" m07|y~0_combout $end
$var wire 1 @" sensor_bus[89]~input_o $end
$var wire 1 A" sensor_bus[121]~input_o $end
$var wire 1 B" m07|y~1_combout $end
$var wire 1 C" data_to_send~9_combout $end
$var wire 1 D" sensor_bus[90]~input_o $end
$var wire 1 E" sensor_bus[122]~input_o $end
$var wire 1 F" sensor_bus[26]~input_o $end
$var wire 1 G" sensor_bus[58]~input_o $end
$var wire 1 H" m06|y~0_combout $end
$var wire 1 I" m06|y~1_combout $end
$var wire 1 J" sensor_bus[42]~input_o $end
$var wire 1 K" sensor_bus[74]~input_o $end
$var wire 1 L" sensor_bus[10]~input_o $end
$var wire 1 M" m06|y~2_combout $end
$var wire 1 N" sensor_bus[106]~input_o $end
$var wire 1 O" m06|y~3_combout $end
$var wire 1 P" data_to_send~10_combout $end
$var wire 1 Q" sensor_bus[75]~input_o $end
$var wire 1 R" sensor_bus[11]~input_o $end
$var wire 1 S" m05|y~2_combout $end
$var wire 1 T" sensor_bus[107]~input_o $end
$var wire 1 U" sensor_bus[43]~input_o $end
$var wire 1 V" m05|y~3_combout $end
$var wire 1 W" sensor_bus[91]~input_o $end
$var wire 1 X" sensor_bus[59]~input_o $end
$var wire 1 Y" sensor_bus[27]~input_o $end
$var wire 1 Z" m05|y~0_combout $end
$var wire 1 [" sensor_bus[123]~input_o $end
$var wire 1 \" m05|y~1_combout $end
$var wire 1 ]" data_to_send~11_combout $end
$var wire 1 ^" sensor_bus[28]~input_o $end
$var wire 1 _" sensor_bus[60]~input_o $end
$var wire 1 `" m04|y~0_combout $end
$var wire 1 a" sensor_bus[92]~input_o $end
$var wire 1 b" sensor_bus[124]~input_o $end
$var wire 1 c" m04|y~1_combout $end
$var wire 1 d" sensor_bus[108]~input_o $end
$var wire 1 e" sensor_bus[12]~input_o $end
$var wire 1 f" sensor_bus[76]~input_o $end
$var wire 1 g" m04|y~2_combout $end
$var wire 1 h" sensor_bus[44]~input_o $end
$var wire 1 i" m04|y~3_combout $end
$var wire 1 j" data_to_send~12_combout $end
$var wire 1 k" sensor_bus[93]~input_o $end
$var wire 1 l" sensor_bus[29]~input_o $end
$var wire 1 m" sensor_bus[61]~input_o $end
$var wire 1 n" m03|y~0_combout $end
$var wire 1 o" sensor_bus[125]~input_o $end
$var wire 1 p" m03|y~1_combout $end
$var wire 1 q" sensor_bus[77]~input_o $end
$var wire 1 r" sensor_bus[13]~input_o $end
$var wire 1 s" m03|y~2_combout $end
$var wire 1 t" sensor_bus[109]~input_o $end
$var wire 1 u" sensor_bus[45]~input_o $end
$var wire 1 v" m03|y~3_combout $end
$var wire 1 w" data_to_send~13_combout $end
$var wire 1 x" sensor_bus[62]~input_o $end
$var wire 1 y" sensor_bus[30]~input_o $end
$var wire 1 z" m02|y~0_combout $end
$var wire 1 {" sensor_bus[126]~input_o $end
$var wire 1 |" sensor_bus[94]~input_o $end
$var wire 1 }" m02|y~1_combout $end
$var wire 1 ~" sensor_bus[46]~input_o $end
$var wire 1 !# sensor_bus[14]~input_o $end
$var wire 1 "# sensor_bus[78]~input_o $end
$var wire 1 ## m02|y~2_combout $end
$var wire 1 $# sensor_bus[110]~input_o $end
$var wire 1 %# m02|y~3_combout $end
$var wire 1 &# data_to_send~14_combout $end
$var wire 1 '# sensor_bus[111]~input_o $end
$var wire 1 (# sensor_bus[79]~input_o $end
$var wire 1 )# sensor_bus[15]~input_o $end
$var wire 1 *# m01|y~2_combout $end
$var wire 1 +# sensor_bus[47]~input_o $end
$var wire 1 ,# m01|y~3_combout $end
$var wire 1 -# sensor_bus[127]~input_o $end
$var wire 1 .# sensor_bus[63]~input_o $end
$var wire 1 /# sensor_bus[31]~input_o $end
$var wire 1 0# m01|y~0_combout $end
$var wire 1 1# sensor_bus[95]~input_o $end
$var wire 1 2# m01|y~1_combout $end
$var wire 1 3# data_to_send~15_combout $end
$var wire 1 4# data_used~0_combout $end
$var wire 1 5# Decoder0~0_combout $end
$var wire 1 6# data_used[0]~1_combout $end
$var wire 1 7# data_used[0]~reg0_q $end
$var wire 1 8# Decoder0~1_combout $end
$var wire 1 9# data_used[1]~2_combout $end
$var wire 1 :# data_used[1]~reg0_q $end
$var wire 1 ;# Decoder0~2_combout $end
$var wire 1 <# data_used[2]~3_combout $end
$var wire 1 =# data_used[2]~reg0_q $end
$var wire 1 ># Decoder0~3_combout $end
$var wire 1 ?# data_used[3]~4_combout $end
$var wire 1 @# data_used[3]~reg0_q $end
$var wire 1 A# Decoder0~4_combout $end
$var wire 1 B# data_used[4]~5_combout $end
$var wire 1 C# data_used[4]~reg0_q $end
$var wire 1 D# Decoder0~5_combout $end
$var wire 1 E# data_used[5]~6_combout $end
$var wire 1 F# data_used[5]~reg0_q $end
$var wire 1 G# Decoder0~6_combout $end
$var wire 1 H# data_used[6]~7_combout $end
$var wire 1 I# data_used[6]~reg0_q $end
$var wire 1 J# Decoder0~7_combout $end
$var wire 1 K# data_used[7]~8_combout $end
$var wire 1 L# data_used[7]~reg0_q $end
$upscope $end
$upscope $end
$enddefinitions $end
#0
$dumpvars
0!
b0 "
b0 #
0$
04
03
02
01
00
0/
0.
0-
0,
0+
0*
0)
0(
0'
0&
0%
0<
0;
0:
09
08
07
06
05
0?
0>
0=
0@
0A
0B
1C
xD
1E
1F
1G
0H
0I
0J
0K
0L
0M
0N
0O
0P
0Q
0R
0S
0T
0U
0V
0W
0X
0Y
0Z
0[
0\
0]
0^
0_
0`
0a
0b
0c
0d
0e
0f
0g
0h
0i
0j
0k
0l
0m
0n
0o
0p
0q
0r
0s
0t
0u
0v
0w
0x
0y
0z
1{
0|
0}
0~
0!!
0"!
0#!
0$!
0%!
0&!
0'!
0(!
0)!
0*!
0+!
0,!
0-!
0.!
0/!
00!
01!
02!
03!
04!
05!
06!
07!
08!
09!
0:!
0;!
0<!
0=!
0>!
0?!
0@!
0A!
0B!
0C!
0D!
0E!
0F!
0G!
0H!
0I!
0J!
0K!
0L!
0M!
0N!
0O!
0P!
0Q!
0R!
0S!
0T!
0U!
0V!
0W!
0X!
0Y!
0Z!
0[!
0\!
0]!
0^!
0_!
0`!
0a!
0b!
0c!
0d!
0e!
0f!
0g!
0h!
0i!
0j!
0k!
0l!
0m!
0n!
0o!
0p!
0q!
0r!
0s!
0t!
0u!
0v!
0w!
0x!
0y!
0z!
0{!
0|!
0}!
0~!
0!"
0""
0#"
0$"
0%"
0&"
0'"
0("
0)"
0*"
0+"
0,"
0-"
0."
0/"
00"
01"
02"
03"
04"
05"
06"
07"
08"
09"
0:"
0;"
0<"
0="
0>"
0?"
0@"
0A"
0B"
0C"
0D"
0E"
0F"
0G"
0H"
0I"
0J"
0K"
0L"
0M"
0N"
0O"
0P"
0Q"
0R"
0S"
0T"
0U"
0V"
0W"
0X"
0Y"
0Z"
0["
0\"
0]"
0^"
0_"
0`"
0a"
0b"
0c"
0d"
0e"
0f"
0g"
0h"
0i"
0j"
0k"
0l"
0m"
0n"
0o"
0p"
0q"
0r"
0s"
0t"
0u"
0v"
0w"
0x"
0y"
0z"
0{"
0|"
0}"
0~"
0!#
0"#
0##
0$#
0%#
0&#
0'#
0(#
0)#
0*#
0+#
0,#
0-#
0.#
0/#
00#
01#
02#
03#
14#
15#
06#
07#
08#
09#
0:#
0;#
0<#
0=#
0>#
0?#
0@#
0A#
0B#
0C#
0D#
0E#
0F#
0G#
0H#
0I#
0J#
0K#
0L#
$end
#20000
1!
b10000000000000000000000000000000000000000000000000000000000000000000000000000000000000000000000000000000000000000000000000000000 "
b11000000000000000000000000000000000000000000000000000000000000000000000000000000000000000000000000000000000000000000000000000000 "
b11010000000000000000000000000000000000000000000000000000000000000000000000000000000000000000000000000000000000000000000000000000 "
b11010000000000010000000000000000000000000000000000000000000000000000000000000000000000000000000000000000000000000000000000000000 "
b11010000000000011000000000000000000000000000000000000000000000000000000000000000000000000000000000000000000000000000000000000000 "
b11010000000000011000000000000000000000000000000000000000000000000000000000000000000000000000000000001000000000000000000000000000 "
b11010000000000011000000000000000000000000000000000000000000000000000000000000000000000000000000000001001000000000000000000000000 "
b11010000000000011000000000000000000000000000000000000000000000000000000000000000000000000000000000001001001000000000000000000000 "
b11010000000000011000000000000000000000000000000000000000000000000000000000000000000000000000000000001001001001000000000000000000 "
b11010000000000011000000000000000000000000000000000000000000000000000000000000000000000000000000000001001001001100000000000000000 "
b11010000000000011000000000000000000000000000000000000000000000000000000000000000000000000000000000001001001001100000000000010000 "
b11010000000000011000000000000000000000000000000000000000000000000000000000000000000000000000000000001001001001100000000000010100 "
b11010000000000011000000000000000000000000000000000000000000000000000000000000000000000000000000000001001001001100000000000010101 "
b10000000 #
b11000000 #
b11000010 #
1f
1r
1k
1j
1"!
1;!
1]!
14!
1A!
1h!
10"
1Y"
1'#
1*!
1b"
1{"
1-#
1g
1#!
1<!
1^!
15!
1C!
1j!
12"
1Z"
1%!
1?!
1_!
18!
1E!
1l!
15"
1\"
1|
1a
18#
05#
1v
1?
0{
1m
1z
1w
1{
0m
1x
#40000
0!
0f
0g
#60000
1!
1f
1g
1y
1`
1d
04#
0w
1@
1A
19#
1]"
16"
1m!
1F!
19!
1I
1J
1M
1P
1S
08#
1)
1,
1/
12
13
09#
#80000
b1000010 #
b10 #
b0 #
0!
0r
0k
0j
0f
0g
0v
#100000
b10 #
1!
1r
1f
1g
1v
#120000
0!
0f
0g
#140000
1!
1f
1g
#160000
0!
0f
0g
#180000
1$
1!
1h
1f
1g
14#
0x
18#
19#
#200000
0!
0f
0g
#220000
b11010000000000011000000000000000000000000000000000000000000000000000000000000000100000000000000000001001001001100000000000010101 "
b11010000000000011000000000000000000000000000000000000000000000000000000000000000110000000000000000001001001001100000000000010101 "
b11010000000000011000000000000000000000000000000000000000000000000000000000000000111000000000000000001001001001100000000000010101 "
b11010000000000011000000000000000000000000000000000000000000000000000000000000000111100000000000000001001001001100000000000010101 "
b11010000000000011000000000000000000000000000000000000000000000000000000000000000111110000000000000001001001001100000000000010101 "
b11010000000000011000000000000000000000000000000000000000000000000000000000000000111111000000000000001001001001100000000000010101 "
b11010000000000011000000000000000000000000000000000000000000000000000000000000000111111100000000000001001001001100000000000010101 "
b11010000000000011000000000000000000000000000000000000000000000000000000000000000111111110000000000001001001001100000000000010101 "
b11010000000000011000000000000000000000000000000000000000000000000000000000000000111111111000000000001001001001100000000000010101 "
b11010000000000011000000000000000000000000000000000000000000000000000000000000000111111111100000000001001001001100000000000010101 "
b11010000000000011000000000000000000000000000000000000000000000000000000000000000111111111110000000001001001001100000000000010101 "
b11010000000000011000000000000000000000000000000000000000000000000000000000000000111111111111000000001001001001100000000000010101 "
b11010000000000011000000000000000000000000000000000000000000000000000000000000000111111111111100000001001001001100000000000010101 "
b11010000000000011000000000000000000000000000000000000000000000000000000000000000111111111111110000001001001001100000000000010101 "
b11010000000000011000000000000000000000000000000000000000000000000000000000000000111111111111111000001001001001100000000000010101 "
b11010000000000011000000000000000000000000000000000000000000000000000000000000000111111111111111100001001001001100000000000010101 "
b11010000000000001000000000000000000000000000000000000000000000000000000000000000111111111111111100001001001001100000000000010101 "
b11010000000000000000000000000000000000000000000000000000000000000000000000000000111111111111111100001001001001100000000000010101 "
0$
1!
1!!
1-!
1>!
1H!
1Z!
1b!
1q!
1!"
1*"
1:"
1J"
1U"
1h"
1u"
1~"
1+#
0'#
0*!
0h
1f
1g
04#
1x
08#
09#
1:#
0y
0`
0d
1Y
14#
1w
1;
0@
0A
19#
0]"
06"
0m!
0F!
09!
0x
0I
0J
0M
0P
0S
18#
0)
0,
0/
02
03
1x
09#
#240000
0!
0f
0g
#250000
b110 #
b100 #
0r
1t
0v
0z
0w
0{
1m
0x
#260000
1!
1f
1g
0:#
0|
1n
1b
0a
0Y
1;#
08#
1u
1,#
1%#
1v"
1i"
0Z"
1V"
1O"
1<"
02"
1/"
1""
1s!
0j!
1f!
0_!
0^!
1L!
0C!
0?!
0<!
05!
12!
0;
0?
1>
1{
1v
0\"
05"
0l!
1_!
0E!
1?!
08!
1z
1w
0{
1x
#280000
0!
0f
0g
#300000
1!
1f
1g
1y
1`
1d
04#
0w
1@
1A
1<#
13#
1&#
1w"
1j"
1]"
1P"
1C"
16"
1)"
1z!
1m!
1`!
1S!
1F!
19!
1,!
1H
1I
1J
1K
1L
1M
1N
1O
1P
1Q
1R
1S
1T
1U
1V
1W
0;#
1%
1&
1'
1(
1)
1*
1+
1,
1-
1.
1/
10
11
12
13
14
0<#
#320000
0!
0f
0g
#340000
b0 #
1!
0t
1f
1g
0u
0v
#360000
0!
0f
0g
#380000
1!
1f
1g
#390000
1$
1h
14#
0x
1;#
1<#
#400000
0!
0f
0g
#420000
0$
1!
0h
1f
1g
04#
1x
0;#
0<#
1=#
0y
0`
0d
1Z
14#
0z
1:
0@
0A
1<#
03#
0&#
0w"
0j"
0]"
0P"
0C"
06"
0)"
0z!
0m!
0`!
0S!
0F!
09!
0,!
0x
0H
0I
0J
0K
0L
0M
0N
0O
0P
0Q
0R
0S
0T
0U
0V
0W
1;#
0%
0&
0'
0(
0)
0*
0+
0,
0-
0.
0/
00
01
02
03
04
1{
0<#
#440000
0!
0f
0g
#450000
b1010000000000000000000000000000000000000000000000000000000000000000000000000000111111111111111100001001001001100000000000010101 "
b10000000000000000000000000000000000000000000000000000000000000000000000000000111111111111111100001001001001100000000000010101 "
b111111111111111100001001001001100000000000010101 "
b111111111111111100000001001001100000000000010101 "
b111111111111111100000000001001100000000000010101 "
b111111111111111100000000000001100000000000010101 "
b111111111111111100000000000000100000000000010101 "
b111111111111111100000000000000000000000000010101 "
b111111111111111100000000000000000000000000000101 "
b111111111111111100000000000000000000000000000001 "
b111111111111111100000000000000000000000000000000 "
b11111111111111100000000000000000000000000000000 "
b1111111111111100000000000000000000000000000000 "
b111111111111100000000000000000000000000000000 "
b11111111111100000000000000000000000000000000 "
b1111111111100000000000000000000000000000000 "
b111111111100000000000000000000000000000000 "
b11111111100000000000000000000000000000000 "
b1111111100000000000000000000000000000000 "
b111111100000000000000000000000000000000 "
b11111100000000000000000000000000000000 "
b1111100000000000000000000000000000000 "
b111100000000000000000000000000000000 "
b11100000000000000000000000000000000 "
b1100000000000000000000000000000000 "
b100000000000000000000000000000000 "
b0 "
0"!
0;!
0]!
04!
0A!
0h!
00"
0Y"
0!!
0-!
0>!
0H!
0Z!
0b!
0q!
0!"
0*"
0:"
0J"
0U"
0h"
0u"
0~"
0+#
0b"
0{"
0-#
0#!
02!
0?!
0L!
0_!
0f!
0s!
0""
0/"
0<"
0O"
0V"
0i"
0v"
0%#
0,#
0%!
#460000
1!
1f
1g
0=#
1|
1a
0Z
1>#
0;#
1u
1o
0:
1?
1}
0{
0m
#480000
0!
0f
0g
#500000
1!
1f
1g
1~
0|
0n
0b
0a
1c
1A#
0>#
1v
0u
1p
0o
1=
0?
0>
1{
1z
1w
0v
0p
0z
0w
0{
1x
1{
0x
#520000
0!
0f
0g
#540000
1!
1f
1g
1|
1a
1D#
0A#
1?
0{
1m
#560000
0!
0f
0g
#580000
1!
1f
1g
0|
1n
1b
0a
1G#
0D#
10#
1*#
1##
1z"
1s"
1n"
1g"
1`"
1Z"
1S"
1M"
1H"
1?"
19"
12"
1-"
1'"
1}!
1v!
1p!
1j!
1e!
1^!
1V!
1O!
1K!
1C!
1<!
15!
10!
1(!
1#!
0?
1>
1{
#600000
0!
0f
0g
#620000
1!
1f
1g
1|
1a
1J#
0G#
1u
1o
1?
0}
0{
0m
#640000
0!
0f
0g
#650000
b10000000000000000 "
b10100000000000000 "
b10101000000000000 "
b10101010000000000 "
b10101010100000000 "
b10101010101000000 "
b10101010101010000 "
b10101010101010100 "
b10101010101010101 "
1"!
1;!
1]!
1o!
1,"
1L"
1e"
1!#
1'!
#660000
b1 #
1!
1s
1f
1g
0~
0|
0n
0b
0a
0c
0J#
15#
12#
00#
0*#
1}"
0z"
0s"
1p"
0n"
1c"
0`"
1\"
0Z"
0S"
1I"
0H"
1B"
0?"
09"
15"
02"
1("
0'"
0}!
1y!
0v!
1l!
0j!
0e!
1Y!
0V!
1R!
0O!
0K!
1E!
0C!
18!
05!
00!
1+!
1%!
1v
1p
0o
1,#
1%#
1v"
1i"
1V"
1O"
1<"
1/"
1""
1s!
1f!
1_!
1L!
1?!
12!
0=
0?
0>
1{
02#
0,#
0}"
0v"
0p"
0c"
0\"
0V"
0I"
0B"
0<"
05"
0("
0""
0y!
0l!
0f!
0Y!
0R!
0L!
0E!
08!
02!
1z
1w
0p
0{
1x
#680000
0!
0f
0g
#700000
1!
1f
1g
1y
1`
1d
04#
0w
1@
1A
16#
1&#
1j"
1P"
16"
1z!
1`!
1F!
1,!
1H
1J
1L
1N
1P
1R
1T
1V
05#
1&
1(
1*
1,
1.
10
12
14
06#
#720000
0!
0f
0g
#740000
1!
1f
1g
#760000
0!
0f
0g
#780000
1!
1f
1g
#800000
0!
0f
0g
#820000
1!
1f
1g
#840000
b0 #
0!
0s
0f
0g
0u
0v
#850000
1$
1h
14#
0x
15#
16#
#860000
1!
1f
1g
17#
0y
0`
0d
1X
0z
1<
0@
0A
06#
0&#
0j"
0P"
06"
0z!
0`!
0F!
0,!
0H
0J
0L
0N
0P
0R
0T
0V
0&
0(
0*
0,
0.
00
02
04
1{
#880000
b101010101010101 "
b1010101010101 "
b10101010101 "
b101010101 "
b1010101 "
b10101 "
b101 "
b1 "
b0 "
0$
0!
0"!
0;!
0]!
0o!
0,"
0L"
0e"
0!#
0'!
0h
0f
0g
0#!
0<!
0^!
0p!
0-"
0M"
0g"
0##
0(!
0%!
0?!
0_!
0s!
0/"
0O"
0i"
0%#
0+!
#900000
1!
1f
1g
07#
1|
1a
0X
18#
05#
0<
1?
0{
1m
#920000
0!
0f
0g
#940000
1!
1f
1g
0|
1n
1b
0a
1;#
08#
0?
1>
1{
#960000
0!
0f
0g
#980000
1!
1f
1g
1|
1a
1>#
0;#
1u
1o
1?
1}
0{
0m
