aluno2/simulation/qsim/PBLSD.msim.vcd
$comment
	File created using the following command:
		vcd file PBLSD.msim.vcd -direction
$end
$date
	Wed Sep 20 21:59:53 2023
$end
$version
	ModelSim Version 2020.1
$end
$timescale
	1ps
$end

$scope module testa_Escalonador_vlg_vec_tst $end
$var reg 1 ! clk $end
$var reg 128 " sensor_bus [127:0] $end
$var reg 8 # sensor_ready [7:0] $end
$var wire 1 $ data_used [7] $end
$var wire 1 % data_used [6] $end
$var wire 1 & data_used [5] $end
$var wire 1 ' data_used [4] $end
$var wire 1 ( data_used [3] $end
$var wire 1 ) data_used [2] $end
$var wire 1 * data_used [1] $end
$var wire 1 + data_used [0] $end
$var wire 1 , done $end
$var wire 1 - sensor_num [2] $end
$var wire 1 . sensor_num [1] $end
$var wire 1 / sensor_num [0] $end
$var wire 1 0 state $end
$var wire 1 1 tx $end
$var wire 1 2 uart_tx_en $end

$scope module i1 $end
$var wire 1 3 gnd $end
$var wire 1 4 vcc $end
$var wire 1 5 unknown $end
$var tri1 1 6 devclrn $end
$var tri1 1 7 devpor $end
$var tri1 1 8 devoe $end
$var wire 1 9 tx~output_o $end
$var wire 1 : done~output_o $end
$var wire 1 ; data_used[0]~output_o $end
$var wire 1 < data_used[1]~output_o $end
$var wire 1 = data_used[2]~output_o $end
$var wire 1 > data_used[3]~output_o $end
$var wire 1 ? data_used[4]~output_o $end
$var wire 1 @ data_used[5]~output_o $end
$var wire 1 A data_used[6]~output_o $end
$var wire 1 B data_used[7]~output_o $end
$var wire 1 C sensor_num[0]~output_o $end
$var wire 1 D sensor_num[1]~output_o $end
$var wire 1 E sensor_num[2]~output_o $end
$var wire 1 F state~output_o $end
$var wire 1 G uart_tx_en~output_o $end
$var wire 1 H clk~input_o $end
$var wire 1 I clk~inputclkctrl_outclk $end
$var wire 1 J transmissor|Selector26~0_combout $end
$var wire 1 K transmissor|Add0~0_combout $end
$var wire 1 L transmissor|Selector32~0_combout $end
$var wire 1 M transmissor|Add0~1 $end
$var wire 1 N transmissor|Add0~2_combout $end
$var wire 1 O transmissor|Selector31~0_combout $end
$var wire 1 P transmissor|Add0~3 $end
$var wire 1 Q transmissor|Add0~4_combout $end
$var wire 1 R transmissor|Selector30~0_combout $end
$var wire 1 S transmissor|Add0~5 $end
$var wire 1 T transmissor|Add0~6_combout $end
$var wire 1 U transmissor|Selector29~0_combout $end
$var wire 1 V transmissor|Add0~7 $end
$var wire 1 W transmissor|Add0~8_combout $end
$var wire 1 X transmissor|Selector28~0_combout $end
$var wire 1 Y transmissor|Add0~9 $end
$var wire 1 Z transmissor|Add0~10_combout $end
$var wire 1 [ transmissor|Selector27~0_combout $end
$var wire 1 \ transmissor|Add0~11 $end
$var wire 1 ] transmissor|Add0~12_combout $end
$var wire 1 ^ transmissor|Selector25~0_combout $end
$var wire 1 _ transmissor|Add0~13 $end
$var wire 1 ` transmissor|Add0~14_combout $end
$var wire 1 a transmissor|state~9_combout $end
$var wire 1 b transmissor|Selector19~0_combout $end
$var wire 1 c transmissor|Add0~15 $end
$var wire 1 d transmissor|Add0~16_combout $end
$var wire 1 e transmissor|Selector24~0_combout $end
$var wire 1 f transmissor|Add0~17 $end
$var wire 1 g transmissor|Add0~18_combout $end
$var wire 1 h transmissor|Selector23~0_combout $end
$var wire 1 i transmissor|Add0~19 $end
$var wire 1 j transmissor|Add0~20_combout $end
$var wire 1 k transmissor|Selector22~0_combout $end
$var wire 1 l transmissor|Add0~21 $end
$var wire 1 m transmissor|Add0~22_combout $end
$var wire 1 n transmissor|Selector21~0_combout $end
$var wire 1 o transmissor|Add0~23 $end
$var wire 1 p transmissor|Add0~24_combout $end
$var wire 1 q transmissor|Selector20~0_combout $end
$var wire 1 r transmissor|Add0~25 $end
$var wire 1 s transmissor|Add0~26_combout $end
$var wire 1 t transmissor|Selector18~0_combout $end
$var wire 1 u transmissor|Add0~27 $end
$var wire 1 v transmissor|Add0~28_combout $end
$var wire 1 w transmissor|Selector17~0_combout $end
$var wire 1 x transmissor|Add0~29 $end
$var wire 1 y transmissor|Add0~30_combout $end
$var wire 1 z transmissor|state~11_combout $end
$var wire 1 { transmissor|state~10_combout $end
$var wire 1 | transmissor|state~8_combout $end
$var wire 1 } transmissor|state~12_combout $end
$var wire 1 ~ transmissor|Selector3~0_combout $end
$var wire 1 !! transmissor|Add0~31 $end
$var wire 1 "! transmissor|Add0~32_combout $end
$var wire 1 #! transmissor|Selector16~0_combout $end
$var wire 1 $! transmissor|Add0~33 $end
$var wire 1 %! transmissor|Add0~34_combout $end
$var wire 1 &! transmissor|Selector15~0_combout $end
$var wire 1 '! transmissor|Add0~35 $end
$var wire 1 (! transmissor|Add0~36_combout $end
$var wire 1 )! transmissor|Selector14~0_combout $end
$var wire 1 *! transmissor|Add0~37 $end
$var wire 1 +! transmissor|Add0~38_combout $end
$var wire 1 ,! transmissor|Selector13~0_combout $end
$var wire 1 -! transmissor|Add0~39 $end
$var wire 1 .! transmissor|Add0~40_combout $end
$var wire 1 /! transmissor|Selector12~0_combout $end
$var wire 1 0! transmissor|Add0~41 $end
$var wire 1 1! transmissor|Add0~42_combout $end
$var wire 1 2! transmissor|Selector11~0_combout $end
$var wire 1 3! transmissor|Add0~43 $end
$var wire 1 4! transmissor|Add0~44_combout $end
$var wire 1 5! transmissor|Selector10~0_combout $end
$var wire 1 6! transmissor|Add0~45 $end
$var wire 1 7! transmissor|Add0~46_combout $end
$var wire 1 8! transmissor|Selector9~0_combout $end
$var wire 1 9! transmissor|Add0~47 $end
$var wire 1 :! transmissor|Add0~48_combout $end
$var wire 1 ;! transmissor|Selector8~0_combout $end
$var wire 1 <! transmissor|Add0~49 $end
$var wire 1 =! transmissor|Add0~50_combout $end
$var wire 1 >! transmissor|Selector7~0_combout $end
$var wire 1 ?! transmissor|Add0~51 $end
$var wire 1 @! transmissor|Add0~52_combout $end
$var wire 1 A! transmissor|Selector6~0_combout $end
$var wire 1 B! transmissor|Add0~53 $end
$var wire 1 C! transmissor|Add0~54_combout $end
$var wire 1 D! transmissor|Selector5~0_combout $end
$var wire 1 E! transmissor|Add0~55 $end
$var wire 1 F! transmissor|Add0~56_combout $end
$var wire 1 G! transmissor|Selector4~0_combout $end
$var wire 1 H! transmissor|Add0~57 $end
$var wire 1 I! transmissor|Add0~58_combout $end
$var wire 1 J! transmissor|Selector2~0_combout $end
$var wire 1 K! transmissor|Add0~59 $end
$var wire 1 L! transmissor|Add0~60_combout $end
$var wire 1 M! transmissor|Selector1~0_combout $end
$var wire 1 N! transmissor|Add0~61 $end
$var wire 1 O! transmissor|Add0~62_combout $end
$var wire 1 P! transmissor|state~13_combout $end
$var wire 1 Q! transmissor|state~14_combout $end
$var wire 1 R! transmissor|state~15_combout $end
$var wire 1 S! transmissor|state~16_combout $end
$var wire 1 T! transmissor|state~17_combout $end
$var wire 1 U! transmissor|state~18_combout $end
$var wire 1 V! transmissor|state.STOP~q $end
$var wire 1 W! transmissor|Equal2~3_combout $end
$var wire 1 X! transmissor|Equal2~1_combout $end
$var wire 1 Y! transmissor|Equal2~2_combout $end
$var wire 1 Z! transmissor|Equal2~0_combout $end
$var wire 1 [! transmissor|Equal2~4_combout $end
$var wire 1 \! transmissor|Equal2~9_combout $end
$var wire 1 ]! transmissor|Equal2~8_combout $end
$var wire 1 ^! transmissor|Equal2~5_combout $end
$var wire 1 _! transmissor|Equal2~6_combout $end
$var wire 1 `! transmissor|Equal2~7_combout $end
$var wire 1 a! transmissor|Equal2~10_combout $end
$var wire 1 b! transmissor|Selector34~0_combout $end
$var wire 1 c! transmissor|Selector34~1_combout $end
$var wire 1 d! transmissor|state.IDLE~q $end
$var wire 1 e! transmissor|Selector35~0_combout $end
$var wire 1 f! transmissor|state.START~q $end
$var wire 1 g! transmissor|pos~0_combout $end
$var wire 1 h! transmissor|Selector0~0_combout $end
$var wire 1 i! transmissor|done~q $end
$var wire 1 j! sensor_ready[5]~input_o $end
$var wire 1 k! sensor_ready[7]~input_o $end
$var wire 1 l! sensor_ready[1]~input_o $end
$var wire 1 m! sensor_ready[3]~input_o $end
$var wire 1 n! sensor_ready[0]~input_o $end
$var wire 1 o! sensor_ready[2]~input_o $end
$var wire 1 p! escalona|sensor_num[1]~2_combout $end
$var wire 1 q! escalona|Mux0~2_combout $end
$var wire 1 r! escalona|Mux0~3_combout $end
$var wire 1 s! escalona|sensor_num[2]~3_combout $end
$var wire 1 t! escalona|sensor_num[0]~0_combout $end
$var wire 1 u! escalona|sensor_num[0]~1_combout $end
$var wire 1 v! sensor_ready[4]~input_o $end
$var wire 1 w! sensor_ready[6]~input_o $end
$var wire 1 x! escalona|Mux0~0_combout $end
$var wire 1 y! escalona|Mux0~1_combout $end
$var wire 1 z! escalona|state~2_combout $end
$var wire 1 {! escalona|state~3_combout $end
$var wire 1 |! escalona|uart_tx_en~q $end
$var wire 1 }! transmissor|Selector36~0_combout $end
$var wire 1 ~! transmissor|Selector36~1_combout $end
$var wire 1 !" transmissor|state.DATA~q $end
$var wire 1 "" transmissor|Selector33~0_combout $end
$var wire 1 #" sensor_bus[127]~input_o $end
$var wire 1 $" sensor_bus[95]~input_o $end
$var wire 1 %" sensor_bus[63]~input_o $end
$var wire 1 &" sensor_bus[31]~input_o $end
$var wire 1 '" escalona|m01|y~0_combout $end
$var wire 1 (" escalona|m01|y~1_combout $end
$var wire 1 )" sensor_bus[111]~input_o $end
$var wire 1 *" sensor_bus[79]~input_o $end
$var wire 1 +" sensor_bus[15]~input_o $end
$var wire 1 ," sensor_bus[47]~input_o $end
$var wire 1 -" escalona|m01|y~2_combout $end
$var wire 1 ." escalona|m01|y~3_combout $end
$var wire 1 /" escalona|m01|y~4_combout $end
$var wire 1 0" transmissor|Selector35~1_combout $end
$var wire 1 1" sensor_bus[109]~input_o $end
$var wire 1 2" sensor_bus[45]~input_o $end
$var wire 1 3" sensor_bus[13]~input_o $end
$var wire 1 4" sensor_bus[77]~input_o $end
$var wire 1 5" escalona|m03|y~2_combout $end
$var wire 1 6" escalona|m03|y~3_combout $end
$var wire 1 7" sensor_bus[125]~input_o $end
$var wire 1 8" sensor_bus[93]~input_o $end
$var wire 1 9" sensor_bus[61]~input_o $end
$var wire 1 :" sensor_bus[29]~input_o $end
$var wire 1 ;" escalona|m03|y~0_combout $end
$var wire 1 <" escalona|m03|y~1_combout $end
$var wire 1 =" escalona|m03|y~4_combout $end
$var wire 1 >" sensor_bus[44]~input_o $end
$var wire 1 ?" sensor_bus[76]~input_o $end
$var wire 1 @" sensor_bus[12]~input_o $end
$var wire 1 A" escalona|m04|y~2_combout $end
$var wire 1 B" sensor_bus[108]~input_o $end
$var wire 1 C" escalona|m04|y~3_combout $end
$var wire 1 D" sensor_bus[60]~input_o $end
$var wire 1 E" sensor_bus[28]~input_o $end
$var wire 1 F" escalona|m04|y~0_combout $end
$var wire 1 G" sensor_bus[92]~input_o $end
$var wire 1 H" sensor_bus[124]~input_o $end
$var wire 1 I" escalona|m04|y~1_combout $end
$var wire 1 J" escalona|m04|y~4_combout $end
$var wire 1 K" sensor_bus[110]~input_o $end
$var wire 1 L" sensor_bus[78]~input_o $end
$var wire 1 M" sensor_bus[46]~input_o $end
$var wire 1 N" sensor_bus[14]~input_o $end
$var wire 1 O" escalona|m02|y~2_combout $end
$var wire 1 P" escalona|m02|y~3_combout $end
$var wire 1 Q" sensor_bus[126]~input_o $end
$var wire 1 R" sensor_bus[94]~input_o $end
$var wire 1 S" sensor_bus[30]~input_o $end
$var wire 1 T" sensor_bus[62]~input_o $end
$var wire 1 U" escalona|m02|y~0_combout $end
$var wire 1 V" escalona|m02|y~1_combout $end
$var wire 1 W" escalona|m02|y~4_combout $end
$var wire 1 X" transmissor|Mux0~7_combout $end
$var wire 1 Y" transmissor|Mux0~8_combout $end
$var wire 1 Z" sensor_bus[107]~input_o $end
$var wire 1 [" sensor_bus[43]~input_o $end
$var wire 1 \" sensor_bus[11]~input_o $end
$var wire 1 ]" sensor_bus[75]~input_o $end
$var wire 1 ^" escalona|m05|y~2_combout $end
$var wire 1 _" escalona|m05|y~3_combout $end
$var wire 1 `" sensor_bus[123]~input_o $end
$var wire 1 a" sensor_bus[91]~input_o $end
$var wire 1 b" sensor_bus[59]~input_o $end
$var wire 1 c" sensor_bus[27]~input_o $end
$var wire 1 d" escalona|m05|y~0_combout $end
$var wire 1 e" escalona|m05|y~1_combout $end
$var wire 1 f" escalona|m05|y~4_combout $end
$var wire 1 g" sensor_bus[122]~input_o $end
$var wire 1 h" sensor_bus[90]~input_o $end
$var wire 1 i" sensor_bus[58]~input_o $end
$var wire 1 j" sensor_bus[26]~input_o $end
$var wire 1 k" escalona|m06|y~0_combout $end
$var wire 1 l" escalona|m06|y~1_combout $end
$var wire 1 m" sensor_bus[106]~input_o $end
$var wire 1 n" sensor_bus[42]~input_o $end
$var wire 1 o" sensor_bus[74]~input_o $end
$var wire 1 p" sensor_bus[10]~input_o $end
$var wire 1 q" escalona|m06|y~2_combout $end
$var wire 1 r" escalona|m06|y~3_combout $end
$var wire 1 s" escalona|m06|y~4_combout $end
$var wire 1 t" sensor_bus[121]~input_o $end
$var wire 1 u" sensor_bus[89]~input_o $end
$var wire 1 v" sensor_bus[57]~input_o $end
$var wire 1 w" sensor_bus[25]~input_o $end
$var wire 1 x" escalona|m07|y~0_combout $end
$var wire 1 y" escalona|m07|y~1_combout $end
$var wire 1 z" sensor_bus[105]~input_o $end
$var wire 1 {" sensor_bus[41]~input_o $end
$var wire 1 |" sensor_bus[9]~input_o $end
$var wire 1 }" sensor_bus[73]~input_o $end
$var wire 1 ~" escalona|m07|y~2_combout $end
$var wire 1 !# escalona|m07|y~3_combout $end
$var wire 1 "# escalona|m07|y~4_combout $end
$var wire 1 ## sensor_bus[88]~input_o $end
$var wire 1 $# sensor_bus[120]~input_o $end
$var wire 1 %# sensor_bus[56]~input_o $end
$var wire 1 &# sensor_bus[24]~input_o $end
$var wire 1 '# escalona|m08|y~0_combout $end
$var wire 1 (# escalona|m08|y~1_combout $end
$var wire 1 )# sensor_bus[104]~input_o $end
$var wire 1 *# sensor_bus[40]~input_o $end
$var wire 1 +# sensor_bus[8]~input_o $end
$var wire 1 ,# sensor_bus[72]~input_o $end
$var wire 1 -# escalona|m08|y~2_combout $end
$var wire 1 .# escalona|m08|y~3_combout $end
$var wire 1 /# escalona|m08|y~4_combout $end
$var wire 1 0# transmissor|Mux0~0_combout $end
$var wire 1 1# transmissor|Mux0~1_combout $end
$var wire 1 2# sensor_bus[101]~input_o $end
$var wire 1 3# sensor_bus[37]~input_o $end
$var wire 1 4# sensor_bus[5]~input_o $end
$var wire 1 5# sensor_bus[69]~input_o $end
$var wire 1 6# escalona|m11|y~2_combout $end
$var wire 1 7# escalona|m11|y~3_combout $end
$var wire 1 8# sensor_bus[85]~input_o $end
$var wire 1 9# sensor_bus[117]~input_o $end
$var wire 1 :# sensor_bus[53]~input_o $end
$var wire 1 ;# sensor_bus[21]~input_o $end
$var wire 1 <# escalona|m11|y~0_combout $end
$var wire 1 =# escalona|m11|y~1_combout $end
$var wire 1 ># escalona|m11|y~4_combout $end
$var wire 1 ?# sensor_bus[119]~input_o $end
$var wire 1 @# sensor_bus[87]~input_o $end
$var wire 1 A# sensor_bus[23]~input_o $end
$var wire 1 B# sensor_bus[55]~input_o $end
$var wire 1 C# escalona|m09|y~0_combout $end
$var wire 1 D# escalona|m09|y~1_combout $end
$var wire 1 E# sensor_bus[103]~input_o $end
$var wire 1 F# sensor_bus[39]~input_o $end
$var wire 1 G# sensor_bus[71]~input_o $end
$var wire 1 H# sensor_bus[7]~input_o $end
$var wire 1 I# escalona|m09|y~2_combout $end
$var wire 1 J# escalona|m09|y~3_combout $end
$var wire 1 K# escalona|m09|y~4_combout $end
$var wire 1 L# sensor_bus[84]~input_o $end
$var wire 1 M# sensor_bus[116]~input_o $end
$var wire 1 N# sensor_bus[52]~input_o $end
$var wire 1 O# sensor_bus[20]~input_o $end
$var wire 1 P# escalona|m12|y~0_combout $end
$var wire 1 Q# escalona|m12|y~1_combout $end
$var wire 1 R# sensor_bus[100]~input_o $end
$var wire 1 S# sensor_bus[36]~input_o $end
$var wire 1 T# sensor_bus[4]~input_o $end
$var wire 1 U# sensor_bus[68]~input_o $end
$var wire 1 V# escalona|m12|y~2_combout $end
$var wire 1 W# escalona|m12|y~3_combout $end
$var wire 1 X# escalona|m12|y~4_combout $end
$var wire 1 Y# sensor_bus[38]~input_o $end
$var wire 1 Z# sensor_bus[102]~input_o $end
$var wire 1 [# sensor_bus[70]~input_o $end
$var wire 1 \# sensor_bus[6]~input_o $end
$var wire 1 ]# escalona|m10|y~2_combout $end
$var wire 1 ^# escalona|m10|y~3_combout $end
$var wire 1 _# sensor_bus[118]~input_o $end
$var wire 1 `# sensor_bus[86]~input_o $end
$var wire 1 a# sensor_bus[22]~input_o $end
$var wire 1 b# sensor_bus[54]~input_o $end
$var wire 1 c# escalona|m10|y~0_combout $end
$var wire 1 d# escalona|m10|y~1_combout $end
$var wire 1 e# escalona|m10|y~4_combout $end
$var wire 1 f# transmissor|Mux0~2_combout $end
$var wire 1 g# transmissor|Mux0~3_combout $end
$var wire 1 h# sensor_bus[98]~input_o $end
$var wire 1 i# sensor_bus[2]~input_o $end
$var wire 1 j# sensor_bus[66]~input_o $end
$var wire 1 k# escalona|m14|y~2_combout $end
$var wire 1 l# sensor_bus[34]~input_o $end
$var wire 1 m# escalona|m14|y~3_combout $end
$var wire 1 n# sensor_bus[114]~input_o $end
$var wire 1 o# sensor_bus[82]~input_o $end
$var wire 1 p# sensor_bus[50]~input_o $end
$var wire 1 q# sensor_bus[18]~input_o $end
$var wire 1 r# escalona|m14|y~0_combout $end
$var wire 1 s# escalona|m14|y~1_combout $end
$var wire 1 t# escalona|m14|y~4_combout $end
$var wire 1 u# sensor_bus[83]~input_o $end
$var wire 1 v# sensor_bus[115]~input_o $end
$var wire 1 w# sensor_bus[51]~input_o $end
$var wire 1 x# sensor_bus[19]~input_o $end
$var wire 1 y# escalona|m13|y~0_combout $end
$var wire 1 z# escalona|m13|y~1_combout $end
$var wire 1 {# sensor_bus[99]~input_o $end
$var wire 1 |# sensor_bus[35]~input_o $end
$var wire 1 }# sensor_bus[67]~input_o $end
$var wire 1 ~# sensor_bus[3]~input_o $end
$var wire 1 !$ escalona|m13|y~2_combout $end
$var wire 1 "$ escalona|m13|y~3_combout $end
$var wire 1 #$ escalona|m13|y~4_combout $end
$var wire 1 $$ sensor_bus[113]~input_o $end
$var wire 1 %$ sensor_bus[81]~input_o $end
$var wire 1 &$ sensor_bus[17]~input_o $end
$var wire 1 '$ sensor_bus[49]~input_o $end
$var wire 1 ($ escalona|m15|y~0_combout $end
$var wire 1 )$ escalona|m15|y~1_combout $end
$var wire 1 *$ sensor_bus[33]~input_o $end
$var wire 1 +$ sensor_bus[97]~input_o $end
$var wire 1 ,$ sensor_bus[65]~input_o $end
$var wire 1 -$ sensor_bus[1]~input_o $end
$var wire 1 .$ escalona|m15|y~2_combout $end
$var wire 1 /$ escalona|m15|y~3_combout $end
$var wire 1 0$ escalona|m15|y~4_combout $end
$var wire 1 1$ sensor_bus[112]~input_o $end
$var wire 1 2$ sensor_bus[80]~input_o $end
$var wire 1 3$ sensor_bus[48]~input_o $end
$var wire 1 4$ sensor_bus[16]~input_o $end
$var wire 1 5$ escalona|m16|y~0_combout $end
$var wire 1 6$ escalona|m16|y~1_combout $end
$var wire 1 7$ sensor_bus[32]~input_o $end
$var wire 1 8$ sensor_bus[96]~input_o $end
$var wire 1 9$ sensor_bus[64]~input_o $end
$var wire 1 :$ sensor_bus[0]~input_o $end
$var wire 1 ;$ escalona|m16|y~2_combout $end
$var wire 1 <$ escalona|m16|y~3_combout $end
$var wire 1 =$ escalona|m16|y~4_combout $end
$var wire 1 >$ transmissor|Mux0~4_combout $end
$var wire 1 ?$ transmissor|Mux0~5_combout $end
$var wire 1 @$ transmissor|Mux0~6_combout $end
$var wire 1 A$ transmissor|Mux0~9_combout $end
$var wire 1 B$ transmissor|Selector33~1_combout $end
$var wire 1 C$ transmissor|tx~q $end
$var wire 1 D$ escalona|data_used~0_combout $end
$var wire 1 E$ escalona|Decoder0~0_combout $end
$var wire 1 F$ escalona|data_used[0]~1_combout $end
$var wire 1 G$ escalona|Decoder0~1_combout $end
$var wire 1 H$ escalona|data_used[1]~2_combout $end
$var wire 1 I$ escalona|Decoder0~2_combout $end
$var wire 1 J$ escalona|data_used[2]~3_combout $end
$var wire 1 K$ escalona|Decoder0~3_combout $end
$var wire 1 L$ escalona|data_used[3]~4_combout $end
$var wire 1 M$ escalona|Decoder0~4_combout $end
$var wire 1 N$ escalona|data_used[4]~5_combout $end
$var wire 1 O$ escalona|Decoder0~5_combout $end
$var wire 1 P$ escalona|data_used[5]~6_combout $end
$var wire 1 Q$ escalona|Decoder0~6_combout $end
$var wire 1 R$ escalona|data_used[6]~7_combout $end
$var wire 1 S$ escalona|Decoder0~7_combout $end
$var wire 1 T$ escalona|data_used[7]~8_combout $end
$var wire 1 U$ escalona|sensor_num [2] $end
$var wire 1 V$ escalona|sensor_num [1] $end
$var wire 1 W$ escalona|sensor_num [0] $end
$var wire 1 X$ transmissor|buffer [15] $end
$var wire 1 Y$ transmissor|buffer [14] $end
$var wire 1 Z$ transmissor|buffer [13] $end
$var wire 1 [$ transmissor|buffer [12] $end
$var wire 1 \$ transmissor|buffer [11] $end
$var wire 1 ]$ transmissor|buffer [10] $end
$var wire 1 ^$ transmissor|buffer [9] $end
$var wire 1 _$ transmissor|buffer [8] $end
$var wire 1 `$ transmissor|buffer [7] $end
$var wire 1 a$ transmissor|buffer [6] $end
$var wire 1 b$ transmissor|buffer [5] $end
$var wire 1 c$ transmissor|buffer [4] $end
$var wire 1 d$ transmissor|buffer [3] $end
$var wire 1 e$ transmissor|buffer [2] $end
$var wire 1 f$ transmissor|buffer [1] $end
$var wire 1 g$ transmissor|buffer [0] $end
$var wire 1 h$ escalona|data_used [7] $end
$var wire 1 i$ escalona|data_used [6] $end
$var wire 1 j$ escalona|data_used [5] $end
$var wire 1 k$ escalona|data_used [4] $end
$var wire 1 l$ escalona|data_used [3] $end
$var wire 1 m$ escalona|data_used [2] $end
$var wire 1 n$ escalona|data_used [1] $end
$var wire 1 o$ escalona|data_used [0] $end
$var wire 1 p$ transmissor|pos [31] $end
$var wire 1 q$ transmissor|pos [30] $end
$var wire 1 r$ transmissor|pos [29] $end
$var wire 1 s$ transmissor|pos [28] $end
$var wire 1 t$ transmissor|pos [27] $end
$var wire 1 u$ transmissor|pos [26] $end
$var wire 1 v$ transmissor|pos [25] $end
$var wire 1 w$ transmissor|pos [24] $end
$var wire 1 x$ transmissor|pos [23] $end
$var wire 1 y$ transmissor|pos [22] $end
$var wire 1 z$ transmissor|pos [21] $end
$var wire 1 {$ transmissor|pos [20] $end
$var wire 1 |$ transmissor|pos [19] $end
$var wire 1 }$ transmissor|pos [18] $end
$var wire 1 ~$ transmissor|pos [17] $end
$var wire 1 !% transmissor|pos [16] $end
$var wire 1 "% transmissor|pos [15] $end
$var wire 1 #% transmissor|pos [14] $end
$var wire 1 $% transmissor|pos [13] $end
$var wire 1 %% transmissor|pos [12] $end
$var wire 1 &% transmissor|pos [11] $end
$var wire 1 '% transmissor|pos [10] $end
$var wire 1 (% transmissor|pos [9] $end
$var wire 1 )% transmissor|pos [8] $end
$var wire 1 *% transmissor|pos [7] $end
$var wire 1 +% transmissor|pos [6] $end
$var wire 1 ,% transmissor|pos [5] $end
$var wire 1 -% transmissor|pos [4] $end
$var wire 1 .% transmissor|pos [3] $end
$var wire 1 /% transmissor|pos [2] $end
$var wire 1 0% transmissor|pos [1] $end
$var wire 1 1% transmissor|pos [0] $end
$upscope $end
$upscope $end
$enddefinitions $end
#0
$dumpvars
0!
b11110011100000000000000000000000000000000000000000000000000000000000000000000000000000000000000010101010101010000000000011111111 "
b0 #
0+
0*
0)
0(
0'
0&
0%
0$
0,
0/
0.
0-
00
11
02
03
14
x5
16
17
18
19
0:
0;
0<
0=
0>
0?
0@
0A
0B
0C
0D
0E
0F
0G
0H
0I
0J
1K
0L
0M
0N
0O
1P
0Q
0R
0S
0T
0U
1V
0W
0X
0Y
0Z
0[
1\
0]
0^
0_
0`
1a
0b
1c
0d
0e
0f
0g
0h
1i
0j
0k
0l
0m
0n
1o
0p
0q
0r
0s
0t
1u
0v
0w
0x
0y
1z
1{
0|
0}
0~
1!!
0"!
0#!
0$!
0%!
0&!
1'!
0(!
0)!
0*!
0+!
0,!
1-!
0.!
0/!
00!
01!
02!
13!
04!
05!
06!
07!
08!
19!
0:!
0;!
0<!
0=!
0>!
1?!
0@!
0A!
0B!
0C!
0D!
1E!
0F!
0G!
0H!
0I!
0J!
1K!
0L!
0M!
0N!
0O!
1P!
1Q!
1R!
1S!
1T!
0U!
0V!
1W!
1X!
1Y!
0Z!
0[!
1\!
1]!
1^!
1_!
1`!
0a!
0b!
0c!
0d!
0e!
0f!
1g!
0h!
0i!
0j!
0k!
0l!
0m!
0n!
0o!
0p!
0q!
0r!
0s!
0t!
1u!
0v!
0w!
0x!
0y!
0z!
0{!
0|!
0}!
0~!
0!"
1""
1#"
0$"
0%"
1&"
1'"
1("
0)"
0*"
0+"
0,"
0-"
0."
0/"
00"
01"
02"
03"
04"
05"
06"
17"
08"
09"
1:"
1;"
1<"
0="
0>"
0?"
0@"
0A"
0B"
0C"
0D"
0E"
0F"
0G"
1H"
0I"
0J"
0K"
0L"
0M"
0N"
0O"
0P"
1Q"
0R"
0S"
0T"
0U"
0V"
0W"
0X"
0Y"
0Z"
0["
0\"
0]"
0^"
0_"
0`"
0a"
0b"
1c"
1d"
1e"
0f"
0g"
0h"
0i"
0j"
0k"
0l"
0m"
0n"
0o"
0p"
0q"
0r"
0s"
1t"
0u"
0v"
1w"
1x"
1y"
0z"
0{"
0|"
0}"
0~"
0!#
0"#
0##
1$#
0%#
0&#
0'#
0(#
0)#
0*#
0+#
0,#
0-#
0.#
0/#
00#
01#
02#
03#
14#
05#
16#
17#
08#
09#
0:#
1;#
1<#
1=#
1>#
1?#
0@#
1A#
0B#
1C#
1D#
0E#
0F#
0G#
1H#
1I#
1J#
1K#
0L#
0M#
0N#
0O#
0P#
0Q#
0R#
0S#
1T#
0U#
1V#
1W#
1X#
0Y#
0Z#
0[#
1\#
1]#
1^#
0_#
0`#
0a#
0b#
0c#
0d#
1e#
0f#
0g#
0h#
1i#
0j#
1k#
0l#
1m#
0n#
0o#
0p#
0q#
0r#
0s#
1t#
0u#
0v#
0w#
1x#
1y#
1z#
0{#
0|#
0}#
1~#
1!$
1"$
1#$
0$$
0%$
0&$
0'$
0($
0)$
0*$
0+$
0,$
1-$
1.$
1/$
10$
01$
02$
03$
04$
05$
06$
07$
08$
09$
1:$
1;$
1<$
1=$
0>$
0?$
0@$
0A$
0B$
0C$
1D$
1E$
0F$
0G$
0H$
0I$
0J$
0K$
0L$
0M$
0N$
0O$
0P$
0Q$
0R$
0S$
0T$
0W$
0V$
0U$
0g$
0f$
0e$
0d$
0c$
0b$
0a$
0`$
0_$
0^$
0]$
0\$
0[$
0Z$
0Y$
0X$
0o$
0n$
0m$
0l$
0k$
0j$
0i$
0h$
01%
00%
0/%
0.%
0-%
0,%
0+%
0*%
0)%
0(%
0'%
0&%
0%%
0$%
0#%
0"%
0!%
0~$
0}$
0|$
0{$
0z$
0y$
0x$
0w$
0v$
0u$
0t$
0s$
0r$
0q$
0p$
$end
#10000
1!
b1 #
1H
1n!
1I
1q!
1r!
1z!
1t!
1{!
0u!
1W$
1C
1G$
0E$
0r!
0q!
1/
0=$
00$
0t#
0e#
0X#
1"#
1f"
1="
1/"
1u!
0z!
0t!
0{!
0u!
1p!
#20000
0!
0H
0I
#30000
1!
1H
1I
0W$
1V$
1D
0C
1I$
0G$
0<$
0;$
0/$
0.$
0"$
0!$
0y#
0m#
0k#
0^#
0]#
0W#
0V#
0J#
0I#
0C#
0<#
07#
06#
0x"
0d"
0;"
0'"
0/
1.
1=$
10$
1t#
1e#
1X#
0"#
0f"
0="
0/"
1u!
0z#
0D#
0=#
0y"
0e"
0<"
0("
0=$
00$
0#$
0t#
0e#
0X#
0K#
0>#
#40000
0!
0H
0I
#50000
1!
1H
1I
1W$
1C
1K$
0I$
1x!
1q!
1/
0u!
1s!
0p!
#60000
0!
0H
0I
#70000
1!
1H
1I
0W$
1U$
0V$
0D
1E
0C
1M$
0K$
1y!
0x!
1r!
0/
1-
0.
1u!
1z!
1t!
0y!
0z!
0t!
1{!
0u!
0{!
1u!
#80000
0!
0H
0I
#90000
1!
1H
1I
1W$
1C
1O$
0M$
0r!
0q!
1/
0u!
1p!
#100000
0!
0H
0I
#110000
1!
1H
1I
0W$
1V$
1D
0C
1Q$
0O$
1;$
15$
1.$
1($
1!$
1y#
1r#
1k#
1c#
1]#
1V#
1P#
1I#
1C#
1<#
16#
1-#
1'#
1~"
1x"
1q"
1k"
1d"
1^"
1U"
1O"
1F"
1A"
1;"
15"
1-"
1'"
0/
1.
1u!
1D#
1(#
1y"
1V"
1I"
1<"
1("
#120000
0!
0H
0I
#130000
1!
1H
1I
1W$
1C
1S$
0Q$
1x!
1q!
1/
1K#
1/#
1"#
1W"
1J"
1="
1/"
0u!
0s!
0p!
#140000
0!
0H
0I
