aluno2/simulation/qsim/PBLSD.msim.vcd
$comment
	File created using the following command:
		vcd file PBLSD.msim.vcd -direction
$end
$date
	Thu Aug 31 23:18:06 2023
$end
$version
	ModelSim Version 2020.1
$end
$timescale
	1ps
$end

$scope module main_vlg_vec_tst $end
$var reg 1 ! ch2 $end
$var reg 1 " clk $end
$var reg 1 # rx $end
$var wire 1 $ colum $end
$var wire 1 % debug2 [1] $end
$var wire 1 & debug2 [0] $end
$var wire 1 ' fim1 $end
$var wire 1 ( fim2 $end
$var wire 1 ) led $end
$var wire 1 * linhas [7] $end
$var wire 1 + linhas [6] $end
$var wire 1 , linhas [5] $end
$var wire 1 - linhas [4] $end
$var wire 1 . linhas [3] $end
$var wire 1 / linhas [2] $end
$var wire 1 0 linhas [1] $end
$var wire 1 1 linhas [0] $end
$var wire 1 2 tx $end

$scope module i1 $end
$var wire 1 3 gnd $end
$var wire 1 4 vcc $end
$var wire 1 5 unknown $end
$var tri1 1 6 devclrn $end
$var tri1 1 7 devpor $end
$var tri1 1 8 devoe $end
$var wire 1 9 led~output_o $end
$var wire 1 : colum~output_o $end
$var wire 1 ; linhas[0]~output_o $end
$var wire 1 < linhas[1]~output_o $end
$var wire 1 = linhas[2]~output_o $end
$var wire 1 > linhas[3]~output_o $end
$var wire 1 ? linhas[4]~output_o $end
$var wire 1 @ linhas[5]~output_o $end
$var wire 1 A linhas[6]~output_o $end
$var wire 1 B linhas[7]~output_o $end
$var wire 1 C tx~output_o $end
$var wire 1 D debug2[0]~output_o $end
$var wire 1 E debug2[1]~output_o $end
$var wire 1 F fim1~output_o $end
$var wire 1 G fim2~output_o $end
$var wire 1 H clk~input_o $end
$var wire 1 I clk~inputclkctrl_outclk $end
$var wire 1 J geradot|baudRateReg[0]~13_combout $end
$var wire 1 K geradot|baudRateReg[0]~feeder_combout $end
$var wire 1 L geradot|baudRateReg[0]~14 $end
$var wire 1 M geradot|baudRateReg[1]~15_combout $end
$var wire 1 N geradot|baudRateReg[1]~feeder_combout $end
$var wire 1 O ~GND~combout $end
$var wire 1 P geradot|baudRateReg[1]~16 $end
$var wire 1 Q geradot|baudRateReg[2]~17_combout $end
$var wire 1 R geradot|baudRateReg[2]~18 $end
$var wire 1 S geradot|baudRateReg[3]~19_combout $end
$var wire 1 T geradot|baudRateReg[3]~20 $end
$var wire 1 U geradot|baudRateReg[4]~21_combout $end
$var wire 1 V geradot|baudRateReg[4]~22 $end
$var wire 1 W geradot|baudRateReg[5]~23_combout $end
$var wire 1 X geradot|baudRateReg[5]~24 $end
$var wire 1 Y geradot|baudRateReg[6]~25_combout $end
$var wire 1 Z geradot|baudRateReg[6]~26 $end
$var wire 1 [ geradot|baudRateReg[7]~27_combout $end
$var wire 1 \ geradot|Equal0~1_combout $end
$var wire 1 ] geradot|baudRateReg[7]~28 $end
$var wire 1 ^ geradot|baudRateReg[8]~29_combout $end
$var wire 1 _ geradot|baudRateReg[8]~30 $end
$var wire 1 ` geradot|baudRateReg[9]~31_combout $end
$var wire 1 a geradot|baudRateReg[9]~32 $end
$var wire 1 b geradot|baudRateReg[10]~33_combout $end
$var wire 1 c geradot|baudRateReg[10]~34 $end
$var wire 1 d geradot|baudRateReg[11]~35_combout $end
$var wire 1 e geradot|Equal0~2_combout $end
$var wire 1 f geradot|Equal0~0_combout $end
$var wire 1 g geradot|baudRateReg[11]~36 $end
$var wire 1 h geradot|baudRateReg[12]~37_combout $end
$var wire 1 i geradot|Equal0~combout $end
$var wire 1 j geradot|Equal0~clkctrl_outclk $end
$var wire 1 k rx~input_o $end
$var wire 1 l recep|Add0~5 $end
$var wire 1 m recep|Add0~6_combout $end
$var wire 1 n recep|Selector31~0_combout $end
$var wire 1 o recep|Add0~7 $end
$var wire 1 p recep|Add0~8_combout $end
$var wire 1 q recep|Selector30~1_combout $end
$var wire 1 r recep|Add0~9 $end
$var wire 1 s recep|Add0~10_combout $end
$var wire 1 t recep|Selector29~0_combout $end
$var wire 1 u recep|Add0~11 $end
$var wire 1 v recep|Add0~12_combout $end
$var wire 1 w recep|Selector28~0_combout $end
$var wire 1 x recep|Add0~13 $end
$var wire 1 y recep|Add0~14_combout $end
$var wire 1 z recep|Selector27~0_combout $end
$var wire 1 { recep|Add0~15 $end
$var wire 1 | recep|Add0~16_combout $end
$var wire 1 } recep|Selector26~0_combout $end
$var wire 1 ~ recep|Add0~17 $end
$var wire 1 !! recep|Add0~18_combout $end
$var wire 1 "! recep|Selector25~0_combout $end
$var wire 1 #! recep|Add0~19 $end
$var wire 1 $! recep|Add0~20_combout $end
$var wire 1 %! recep|Selector24~0_combout $end
$var wire 1 &! recep|Add0~21 $end
$var wire 1 '! recep|Add0~22_combout $end
$var wire 1 (! recep|Selector23~0_combout $end
$var wire 1 )! recep|Add0~23 $end
$var wire 1 *! recep|Add0~24_combout $end
$var wire 1 +! recep|Selector22~0_combout $end
$var wire 1 ,! recep|Add0~25 $end
$var wire 1 -! recep|Add0~26_combout $end
$var wire 1 .! recep|Selector21~0_combout $end
$var wire 1 /! recep|Add0~27 $end
$var wire 1 0! recep|Add0~28_combout $end
$var wire 1 1! recep|Selector20~0_combout $end
$var wire 1 2! recep|Add0~29 $end
$var wire 1 3! recep|Add0~30_combout $end
$var wire 1 4! recep|Selector19~0_combout $end
$var wire 1 5! recep|Add0~31 $end
$var wire 1 6! recep|Add0~32_combout $end
$var wire 1 7! recep|Selector18~0_combout $end
$var wire 1 8! recep|Add0~33 $end
$var wire 1 9! recep|Add0~34_combout $end
$var wire 1 :! recep|Selector17~0_combout $end
$var wire 1 ;! recep|Add0~35 $end
$var wire 1 <! recep|Add0~36_combout $end
$var wire 1 =! recep|Selector16~0_combout $end
$var wire 1 >! recep|Add0~37 $end
$var wire 1 ?! recep|Add0~38_combout $end
$var wire 1 @! recep|Selector15~0_combout $end
$var wire 1 A! recep|Add0~39 $end
$var wire 1 B! recep|Add0~40_combout $end
$var wire 1 C! recep|Selector14~0_combout $end
$var wire 1 D! recep|Add0~41 $end
$var wire 1 E! recep|Add0~42_combout $end
$var wire 1 F! recep|Selector13~0_combout $end
$var wire 1 G! recep|Add0~43 $end
$var wire 1 H! recep|Add0~44_combout $end
$var wire 1 I! recep|Selector12~0_combout $end
$var wire 1 J! recep|Add0~45 $end
$var wire 1 K! recep|Add0~46_combout $end
$var wire 1 L! recep|Selector11~0_combout $end
$var wire 1 M! recep|Add0~47 $end
$var wire 1 N! recep|Add0~48_combout $end
$var wire 1 O! recep|Selector10~0_combout $end
$var wire 1 P! recep|Add0~49 $end
$var wire 1 Q! recep|Add0~50_combout $end
$var wire 1 R! recep|Selector9~0_combout $end
$var wire 1 S! recep|Add0~51 $end
$var wire 1 T! recep|Add0~52_combout $end
$var wire 1 U! recep|Selector8~0_combout $end
$var wire 1 V! recep|Add0~53 $end
$var wire 1 W! recep|Add0~54_combout $end
$var wire 1 X! recep|Selector7~0_combout $end
$var wire 1 Y! recep|Add0~55 $end
$var wire 1 Z! recep|Add0~56_combout $end
$var wire 1 [! recep|Selector6~0_combout $end
$var wire 1 \! recep|Add0~57 $end
$var wire 1 ]! recep|Add0~58_combout $end
$var wire 1 ^! recep|Selector5~0_combout $end
$var wire 1 _! recep|Add0~59 $end
$var wire 1 `! recep|Add0~60_combout $end
$var wire 1 a! recep|Selector4~0_combout $end
$var wire 1 b! recep|LessThan0~7_combout $end
$var wire 1 c! recep|LessThan0~5_combout $end
$var wire 1 d! recep|LessThan0~6_combout $end
$var wire 1 e! recep|LessThan0~3_combout $end
$var wire 1 f! recep|LessThan0~2_combout $end
$var wire 1 g! recep|LessThan0~1_combout $end
$var wire 1 h! recep|LessThan0~0_combout $end
$var wire 1 i! recep|LessThan0~4_combout $end
$var wire 1 j! recep|LessThan0~8_combout $end
$var wire 1 k! recep|Selector2~0_combout $end
$var wire 1 l! recep|Add0~61 $end
$var wire 1 m! recep|Add0~62_combout $end
$var wire 1 n! recep|Selector3~0_combout $end
$var wire 1 o! recep|state~5_combout $end
$var wire 1 p! recep|state.STOP~q $end
$var wire 1 q! recep|Selector1~0_combout $end
$var wire 1 r! recep|state.START~q $end
$var wire 1 s! recep|Selector2~1_combout $end
$var wire 1 t! recep|state.DATA~q $end
$var wire 1 u! recep|Selector30~0_combout $end
$var wire 1 v! recep|Add0~0_combout $end
$var wire 1 w! recep|Selector34~0_combout $end
$var wire 1 x! recep|Add0~1 $end
$var wire 1 y! recep|Add0~2_combout $end
$var wire 1 z! recep|Selector33~0_combout $end
$var wire 1 {! recep|Add0~3 $end
$var wire 1 |! recep|Add0~4_combout $end
$var wire 1 }! recep|Selector32~0_combout $end
$var wire 1 ~! recep|Decoder0~5_combout $end
$var wire 1 !" recep|Decoder0~0_combout $end
$var wire 1 "" recep|buffer[6]~6_combout $end
$var wire 1 #" recep|data[6]~feeder_combout $end
$var wire 1 $" recep|Decoder0~3_combout $end
$var wire 1 %" recep|buffer[0]~5_combout $end
$var wire 1 &" recep|data[0]~feeder_combout $end
$var wire 1 '" recep|Decoder0~2_combout $end
$var wire 1 (" recep|buffer[7]~7_combout $end
$var wire 1 )" recep|Decoder0~1_combout $end
$var wire 1 *" recep|buffer[5]~4_combout $end
$var wire 1 +" recep|data[5]~feeder_combout $end
$var wire 1 ," recep|Equal0~1_combout $end
$var wire 1 -" recep|Decoder0~4_combout $end
$var wire 1 ." recep|buffer[3]~2_combout $end
$var wire 1 /" recep|data[3]~feeder_combout $end
$var wire 1 0" recep|buffer[1]~1_combout $end
$var wire 1 1" recep|data[1]~feeder_combout $end
$var wire 1 2" recep|buffer[2]~3_combout $end
$var wire 1 3" recep|buffer[4]~0_combout $end
$var wire 1 4" recep|data[4]~feeder_combout $end
$var wire 1 5" recep|Equal0~0_combout $end
$var wire 1 6" recep|Equal0~2_combout $end
$var wire 1 7" ch2~input_o $end
$var wire 1 8" transm|Mux2~0_combout $end
$var wire 1 9" transm|Add0~0_combout $end
$var wire 1 :" transm|Mux35~0_combout $end
$var wire 1 ;" transm|Add0~1 $end
$var wire 1 <" transm|Add0~2_combout $end
$var wire 1 =" transm|Mux34~0_combout $end
$var wire 1 >" transm|Add0~3 $end
$var wire 1 ?" transm|Add0~4_combout $end
$var wire 1 @" transm|Mux33~0_combout $end
$var wire 1 A" transm|Add0~5 $end
$var wire 1 B" transm|Add0~6_combout $end
$var wire 1 C" transm|Mux32~0_combout $end
$var wire 1 D" transm|Add0~7 $end
$var wire 1 E" transm|Add0~8_combout $end
$var wire 1 F" transm|Mux31~0_combout $end
$var wire 1 G" transm|Add0~9 $end
$var wire 1 H" transm|Add0~10_combout $end
$var wire 1 I" transm|Mux30~0_combout $end
$var wire 1 J" transm|Add0~11 $end
$var wire 1 K" transm|Add0~12_combout $end
$var wire 1 L" transm|Mux29~0_combout $end
$var wire 1 M" transm|Equal2~0_combout $end
$var wire 1 N" transm|Add0~13 $end
$var wire 1 O" transm|Add0~14_combout $end
$var wire 1 P" transm|Mux28~0_combout $end
$var wire 1 Q" transm|Add0~15 $end
$var wire 1 R" transm|Add0~16_combout $end
$var wire 1 S" transm|Mux27~0_combout $end
$var wire 1 T" transm|Add0~17 $end
$var wire 1 U" transm|Add0~18_combout $end
$var wire 1 V" transm|Mux26~0_combout $end
$var wire 1 W" transm|Add0~19 $end
$var wire 1 X" transm|Add0~20_combout $end
$var wire 1 Y" transm|Mux25~0_combout $end
$var wire 1 Z" transm|Add0~21 $end
$var wire 1 [" transm|Add0~22_combout $end
$var wire 1 \" transm|Mux24~0_combout $end
$var wire 1 ]" transm|Add0~23 $end
$var wire 1 ^" transm|Add0~24_combout $end
$var wire 1 _" transm|Mux23~0_combout $end
$var wire 1 `" transm|Add0~25 $end
$var wire 1 a" transm|Add0~26_combout $end
$var wire 1 b" transm|Mux22~0_combout $end
$var wire 1 c" transm|Add0~27 $end
$var wire 1 d" transm|Add0~28_combout $end
$var wire 1 e" transm|Mux21~0_combout $end
$var wire 1 f" transm|Add0~29 $end
$var wire 1 g" transm|Add0~30_combout $end
$var wire 1 h" transm|Mux20~0_combout $end
$var wire 1 i" transm|Equal2~3_combout $end
$var wire 1 j" transm|Equal2~2_combout $end
$var wire 1 k" transm|Equal2~4_combout $end
$var wire 1 l" transm|Equal2~1_combout $end
$var wire 1 m" transm|Add0~31 $end
$var wire 1 n" transm|Add0~32_combout $end
$var wire 1 o" transm|Mux19~0_combout $end
$var wire 1 p" transm|Add0~33 $end
$var wire 1 q" transm|Add0~34_combout $end
$var wire 1 r" transm|Mux18~0_combout $end
$var wire 1 s" transm|Add0~35 $end
$var wire 1 t" transm|Add0~36_combout $end
$var wire 1 u" transm|Mux17~0_combout $end
$var wire 1 v" transm|Add0~37 $end
$var wire 1 w" transm|Add0~38_combout $end
$var wire 1 x" transm|Mux16~0_combout $end
$var wire 1 y" transm|Add0~39 $end
$var wire 1 z" transm|Add0~40_combout $end
$var wire 1 {" transm|Mux15~0_combout $end
$var wire 1 |" transm|Add0~41 $end
$var wire 1 }" transm|Add0~42_combout $end
$var wire 1 ~" transm|Mux14~0_combout $end
$var wire 1 !# transm|Add0~43 $end
$var wire 1 "# transm|Add0~44_combout $end
$var wire 1 ## transm|Mux13~0_combout $end
$var wire 1 $# transm|Add0~45 $end
$var wire 1 %# transm|Add0~46_combout $end
$var wire 1 &# transm|Mux12~0_combout $end
$var wire 1 '# transm|Add0~47 $end
$var wire 1 (# transm|Add0~48_combout $end
$var wire 1 )# transm|Mux11~0_combout $end
$var wire 1 *# transm|Add0~49 $end
$var wire 1 +# transm|Add0~50_combout $end
$var wire 1 ,# transm|Mux10~0_combout $end
$var wire 1 -# transm|Add0~51 $end
$var wire 1 .# transm|Add0~52_combout $end
$var wire 1 /# transm|Mux9~0_combout $end
$var wire 1 0# transm|Add0~53 $end
$var wire 1 1# transm|Add0~54_combout $end
$var wire 1 2# transm|Mux8~0_combout $end
$var wire 1 3# transm|Add0~55 $end
$var wire 1 4# transm|Add0~56_combout $end
$var wire 1 5# transm|Mux7~0_combout $end
$var wire 1 6# transm|Add0~57 $end
$var wire 1 7# transm|Add0~58_combout $end
$var wire 1 8# transm|Mux6~0_combout $end
$var wire 1 9# transm|Add0~59 $end
$var wire 1 :# transm|Add0~60_combout $end
$var wire 1 ;# transm|Mux5~0_combout $end
$var wire 1 <# transm|Add0~61 $end
$var wire 1 =# transm|Add0~62_combout $end
$var wire 1 ># transm|Mux4~0_combout $end
$var wire 1 ?# transm|Equal2~8_combout $end
$var wire 1 @# transm|Equal2~5_combout $end
$var wire 1 A# transm|Equal2~7_combout $end
$var wire 1 B# transm|Equal2~6_combout $end
$var wire 1 C# transm|Equal2~9_combout $end
$var wire 1 D# transm|Equal2~10_combout $end
$var wire 1 E# transm|Mux3~0_combout $end
$var wire 1 F# transm|Mux3~1_combout $end
$var wire 1 G# transm|Mux3~2_combout $end
$var wire 1 H# transm|Mux3~3_combout $end
$var wire 1 I# transm|Mux3~4_combout $end
$var wire 1 J# transm|Mux3~5_combout $end
$var wire 1 K# transm|Mux3~7_combout $end
$var wire 1 L# transm|Mux3~6_combout $end
$var wire 1 M# transm|Mux3~9_combout $end
$var wire 1 N# transm|Mux3~8_combout $end
$var wire 1 O# transm|Mux3~10_combout $end
$var wire 1 P# transm|Mux3~11_combout $end
$var wire 1 Q# transm|Mux3~12_combout $end
$var wire 1 R# transm|Mux3~18_combout $end
$var wire 1 S# transm|Mux3~13_combout $end
$var wire 1 T# transm|Mux3~14_combout $end
$var wire 1 U# transm|Mux3~15_combout $end
$var wire 1 V# transm|Mux3~16_combout $end
$var wire 1 W# transm|Mux3~17_combout $end
$var wire 1 X# transm|Mux3~19_combout $end
$var wire 1 Y# transm|Mux3~20_combout $end
$var wire 1 Z# transm|Mux3~21_combout $end
$var wire 1 [# transm|Mux3~22_combout $end
$var wire 1 \# transm|Mux1~0_combout $end
$var wire 1 ]# transm|Mux0~0_combout $end
$var wire 1 ^# transm|Mux1~1_combout $end
$var wire 1 _# transm|tx~q $end
$var wire 1 `# transm|fim1~0_combout $end
$var wire 1 a# transm|fim1~q $end
$var wire 1 b# transm|fim2~0_combout $end
$var wire 1 c# transm|fim2~q $end
$var wire 1 d# geradot|baudRateReg [12] $end
$var wire 1 e# geradot|baudRateReg [11] $end
$var wire 1 f# geradot|baudRateReg [10] $end
$var wire 1 g# geradot|baudRateReg [9] $end
$var wire 1 h# geradot|baudRateReg [8] $end
$var wire 1 i# geradot|baudRateReg [7] $end
$var wire 1 j# geradot|baudRateReg [6] $end
$var wire 1 k# geradot|baudRateReg [5] $end
$var wire 1 l# geradot|baudRateReg [4] $end
$var wire 1 m# geradot|baudRateReg [3] $end
$var wire 1 n# geradot|baudRateReg [2] $end
$var wire 1 o# geradot|baudRateReg [1] $end
$var wire 1 p# geradot|baudRateReg [0] $end
$var wire 1 q# recep|data [7] $end
$var wire 1 r# recep|data [6] $end
$var wire 1 s# recep|data [5] $end
$var wire 1 t# recep|data [4] $end
$var wire 1 u# recep|data [3] $end
$var wire 1 v# recep|data [2] $end
$var wire 1 w# recep|data [1] $end
$var wire 1 x# recep|data [0] $end
$var wire 1 y# recep|buffer [7] $end
$var wire 1 z# recep|buffer [6] $end
$var wire 1 {# recep|buffer [5] $end
$var wire 1 |# recep|buffer [4] $end
$var wire 1 }# recep|buffer [3] $end
$var wire 1 ~# recep|buffer [2] $end
$var wire 1 !$ recep|buffer [1] $end
$var wire 1 "$ recep|buffer [0] $end
$var wire 1 #$ transm|state [1] $end
$var wire 1 $$ transm|state [0] $end
$var wire 1 %$ transm|pos [31] $end
$var wire 1 &$ transm|pos [30] $end
$var wire 1 '$ transm|pos [29] $end
$var wire 1 ($ transm|pos [28] $end
$var wire 1 )$ transm|pos [27] $end
$var wire 1 *$ transm|pos [26] $end
$var wire 1 +$ transm|pos [25] $end
$var wire 1 ,$ transm|pos [24] $end
$var wire 1 -$ transm|pos [23] $end
$var wire 1 .$ transm|pos [22] $end
$var wire 1 /$ transm|pos [21] $end
$var wire 1 0$ transm|pos [20] $end
$var wire 1 1$ transm|pos [19] $end
$var wire 1 2$ transm|pos [18] $end
$var wire 1 3$ transm|pos [17] $end
$var wire 1 4$ transm|pos [16] $end
$var wire 1 5$ transm|pos [15] $end
$var wire 1 6$ transm|pos [14] $end
$var wire 1 7$ transm|pos [13] $end
$var wire 1 8$ transm|pos [12] $end
$var wire 1 9$ transm|pos [11] $end
$var wire 1 :$ transm|pos [10] $end
$var wire 1 ;$ transm|pos [9] $end
$var wire 1 <$ transm|pos [8] $end
$var wire 1 =$ transm|pos [7] $end
$var wire 1 >$ transm|pos [6] $end
$var wire 1 ?$ transm|pos [5] $end
$var wire 1 @$ transm|pos [4] $end
$var wire 1 A$ transm|pos [3] $end
$var wire 1 B$ transm|pos [2] $end
$var wire 1 C$ transm|pos [1] $end
$var wire 1 D$ transm|pos [0] $end
$var wire 1 E$ recep|counter [31] $end
$var wire 1 F$ recep|counter [30] $end
$var wire 1 G$ recep|counter [29] $end
$var wire 1 H$ recep|counter [28] $end
$var wire 1 I$ recep|counter [27] $end
$var wire 1 J$ recep|counter [26] $end
$var wire 1 K$ recep|counter [25] $end
$var wire 1 L$ recep|counter [24] $end
$var wire 1 M$ recep|counter [23] $end
$var wire 1 N$ recep|counter [22] $end
$var wire 1 O$ recep|counter [21] $end
$var wire 1 P$ recep|counter [20] $end
$var wire 1 Q$ recep|counter [19] $end
$var wire 1 R$ recep|counter [18] $end
$var wire 1 S$ recep|counter [17] $end
$var wire 1 T$ recep|counter [16] $end
$var wire 1 U$ recep|counter [15] $end
$var wire 1 V$ recep|counter [14] $end
$var wire 1 W$ recep|counter [13] $end
$var wire 1 X$ recep|counter [12] $end
$var wire 1 Y$ recep|counter [11] $end
$var wire 1 Z$ recep|counter [10] $end
$var wire 1 [$ recep|counter [9] $end
$var wire 1 \$ recep|counter [8] $end
$var wire 1 ]$ recep|counter [7] $end
$var wire 1 ^$ recep|counter [6] $end
$var wire 1 _$ recep|counter [5] $end
$var wire 1 `$ recep|counter [4] $end
$var wire 1 a$ recep|counter [3] $end
$var wire 1 b$ recep|counter [2] $end
$var wire 1 c$ recep|counter [1] $end
$var wire 1 d$ recep|counter [0] $end
$upscope $end
$upscope $end
$enddefinitions $end
#0
$dumpvars
0!
0"
0#
0$
0&
0%
0'
0(
0)
01
00
0/
0.
0-
0,
0+
0*
12
03
14
x5
16
17
18
09
0:
0;
0<
0=
0>
0?
0@
0A
0B
1C
0D
0E
0F
0G
0H
0I
1J
1K
0L
0M
0N
0O
1P
0Q
0R
0S
1T
0U
0V
0W
1X
0Y
0Z
0[
0\
1]
0^
0_
0`
1a
0b
0c
0d
0e
0f
1g
0h
0i
0j
0k
0l
0m
0n
1o
0p
0q
0r
0s
0t
1u
0v
0w
0x
0y
0z
1{
0|
0}
0~
0!!
0"!
1#!
0$!
0%!
0&!
0'!
0(!
1)!
0*!
0+!
0,!
0-!
0.!
1/!
00!
01!
02!
03!
04!
15!
06!
07!
08!
09!
0:!
1;!
0<!
0=!
0>!
0?!
0@!
1A!
0B!
0C!
0D!
0E!
0F!
1G!
0H!
0I!
0J!
0K!
0L!
1M!
0N!
0O!
0P!
0Q!
0R!
1S!
0T!
0U!
0V!
0W!
0X!
1Y!
0Z!
0[!
0\!
0]!
0^!
1_!
0`!
0a!
1b!
1c!
1d!
1e!
1f!
1g!
1h!
1i!
1j!
0k!
0l!
0m!
0n!
0o!
0p!
1q!
0r!
1s!
0t!
1u!
1v!
0w!
0x!
0y!
0z!
1{!
0|!
0}!
0~!
0!"
0""
0#"
1$"
0%"
0&"
0'"
0("
0)"
0*"
0+"
0,"
0-"
0."
0/"
00"
01"
02"
03"
04"
05"
06"
07"
08"
09"
0:"
1;"
1<"
0="
0>"
1?"
0@"
1A"
1B"
0C"
0D"
0E"
0F"
1G"
0H"
0I"
0J"
0K"
0L"
0M"
1N"
0O"
0P"
0Q"
0R"
0S"
1T"
0U"
0V"
0W"
0X"
0Y"
1Z"
0["
0\"
0]"
0^"
0_"
1`"
0a"
0b"
0c"
0d"
0e"
1f"
0g"
0h"
1i"
1j"
1k"
1l"
0m"
0n"
0o"
1p"
0q"
0r"
0s"
0t"
0u"
1v"
0w"
0x"
0y"
0z"
0{"
1|"
0}"
0~"
0!#
0"#
0##
1$#
0%#
0&#
0'#
0(#
0)#
1*#
0+#
0,#
0-#
0.#
0/#
10#
01#
02#
03#
04#
05#
16#
07#
08#
09#
0:#
0;#
1<#
0=#
0>#
1?#
1@#
1A#
1B#
1C#
0D#
0E#
0F#
1G#
0H#
0I#
0J#
0K#
0L#
0M#
0N#
0O#
0P#
0Q#
0R#
0S#
1T#
1U#
1V#
0W#
0X#
0Y#
0Z#
0[#
1\#
0]#
0^#
0_#
0`#
0a#
0b#
0c#
0p#
0o#
0n#
0m#
0l#
0k#
0j#
0i#
0h#
0g#
0f#
0e#
0d#
0x#
0w#
0v#
0u#
0t#
0s#
0r#
0q#
0"$
0!$
0~#
0}#
0|#
0{#
0z#
0y#
0$$
0#$
0D$
0C$
0B$
0A$
0@$
0?$
0>$
0=$
0<$
0;$
0:$
09$
08$
07$
06$
05$
04$
03$
02$
01$
00$
0/$
0.$
0-$
0,$
0+$
0*$
0)$
0($
0'$
0&$
0%$
0d$
0c$
0b$
0a$
0`$
0_$
0^$
0]$
0\$
0[$
0Z$
0Y$
0X$
0W$
0V$
0U$
0T$
0S$
0R$
0Q$
0P$
0O$
0N$
0M$
0L$
0K$
0J$
0I$
0H$
0G$
0F$
0E$
$end
#10000
1"
1H
1I
1p#
1L
0J
1M
0K
1N
#20000
0"
0H
0I
#30000
1"
1H
1I
1o#
0p#
0P
0M
0L
1J
1P
1M
1Q
0N
1K
0Q
1N
#40000
0"
0H
0I
#50000
1"
1H
1I
1p#
1L
0J
0P
0M
0K
1Q
0N
#60000
1!
0"
17"
0H
0I
1E#
1[#
#70000
1"
1H
1I
1n#
0o#
1$$
0p#
1R
1P
1M
0\#
0E#
0L
1J
0Q
18"
0R
0M
1S
1Q
1N
1^#
0[#
1K
0S
0N
#80000
0"
0H
0I
#90000
1"
1H
1I
1_#
0$$
1#$
1p#
0C
1H#
1:"
1L
0J
02
0^#
1M
0K
1N
#100000
0"
0H
0I
#110000
1"
1H
1I
1o#
0_#
1D$
0p#
1C
0P
0M
1]#
0l"
0;"
19"
0L
1J
12
1R
0<"
1I#
0:"
1P
1M
0Q
0N
1^#
1K
0I#
1="
0R
1S
1Q
1N
0S
#120000
0"
0H
0I
#130000
1"
1H
1I
1_#
1C$
0D$
1p#
0C
1>"
1<"
1;"
09"
1L
0J
02
0?"
0="
0>"
0<"
1:"
0P
0M
0K
1@"
1?"
1="
1R
0Q
0N
0@"
1S
#140000
0"
0H
0I
#150000
1"
1H
1I
1m#
0n#
0o#
1D$
0p#
1f
0T
0R
1P
1M
0;"
19"
0L
1J
0S
1Q
1T
1>"
1<"
0:"
0M
1U
1S
0Q
1N
1K
0?"
1I#
0="
0U
0N
0I#
1@"
#160000
0"
0H
0I
#170000
1"
1H
1I
1B$
0C$
0D$
1p#
0A"
1?"
0>"
0<"
1;"
09"
0f
1L
0J
0B"
0@"
1A"
0?"
1="
1<"
1:"
1M
0K
1S#
1C"
1B"
1@"
0="
1N
1W#
0S#
0C"
0W#
#180000
0"
0H
0I
#190000
1"
1H
1I
1o#
1D$
0p#
0P
0M
0;"
19"
0L
1J
0<"
0:"
1P
1M
1Q
0N
1K
1="
0Q
1N
#200000
0"
0H
0I
#210000
1"
1H
1I
1C$
0D$
1p#
1>"
1<"
1;"
09"
1L
0J
0A"
1?"
0="
0>"
0<"
1:"
0P
0M
0K
0B"
0@"
1A"
0?"
1="
1Q
0N
1S#
1C"
1B"
1@"
1W#
0S#
0C"
0W#
#220000
0"
0H
0I
#230000
1"
1H
1I
1n#
0o#
1D$
0p#
1R
1P
1M
0]#
0;"
19"
0L
1J
0Q
0T
0R
1>"
1<"
0:"
0M
0S
1Q
1N
0^#
1K
1T
0A"
1?"
0="
1U
1S
0N
0B"
1I#
0@"
0U
1S#
1C"
1W#
1Y#
1Z#
1[#
#240000
0"
0H
0I
#250000
1"
1H
1I
0_#
1$$
1A$
0B$
0C$
0D$
1p#
1C
1\#
0H#
1]#
1M"
1D"
1B"
1l"
1A"
0?"
0>"
0<"
1;"
09"
1L
0J
12
1b#
08"
0I#
1D#
0G"
1E"
0S#
0C"
0D"
0B"
1@"
1?"
1="
1<"
1:"
1M
0K
0Y#
1E#
1J"
1H"
1F"
0W#
1G"
0E"
1C"
0@"
0="
0b#
1`#
1N
0Z#
0N"
1K"
1I"
0J"
0H"
0F"
1Q"
1O"
1L"
1N"
0K"
0I"
0T"
1R"
0T#
1P"
0Q"
0O"
1S#
0L"
1W"
1U"
1S"
1T"
0R"
0P"
0Z"
1X"
1V"
0W"
0U"
0S"
1]"
1["
1Y"
1Z"
0X"
0V"
0`"
1^"
0U#
1\"
0]"
0["
1T#
0Y"
1c"
1a"
1_"
1`"
0^"
0\"
0f"
1d"
1b"
0c"
0a"
0_"
1m"
1g"
1e"
1f"
0d"
0b"
0p"
1n"
0V#
0m"
0g"
1U#
0e"
1h"
1s"
1q"
1o"
1p"
0n"
0h"
0v"
1t"
1r"
0s"
0q"
0o"
1y"
1w"
1v"
0t"
0r"
1u"
0|"
1z"
1X#
1x"
0y"
0w"
1V#
0u"
1!#
1}"
1R#
1|"
0z"
0X#
0x"
1W#
1{"
0$#
1"#
0!#
0}"
1~"
0{"
1'#
1%#
1$#
0"#
1##
0~"
0*#
1(#
0G#
0'#
0%#
0R#
1&#
0##
1-#
1+#
1*#
0(#
1)#
0&#
00#
1.#
1X#
0-#
0+#
1G#
1,#
0)#
13#
11#
1F#
10#
0.#
0X#
1/#
0,#
06#
14#
0G#
03#
01#
0F#
12#
0/#
19#
17#
1X#
16#
04#
1G#
15#
02#
0<#
1:#
09#
07#
18#
05#
1=#
1F#
1<#
0:#
0X#
1;#
08#
0G#
0=#
0F#
1>#
0;#
1G#
0>#
#260000
0"
0H
0I
#270000
1"
1H
1I
1o#
0#$
0p#
1a#
1F
0P
0M
0\#
0E#
0C"
0:"
0L
1J
1'
18"
1R
1P
1M
0Q
0N
1^#
0[#
1K
0T
0R
0S
1Q
1N
1T
1U
1S
0U
#280000
0"
0H
0I
#290000
1"
1H
1I
1_#
0$$
1#$
1p#
0C
1H#
1C"
1:"
1L
0J
02
0P
0M
0K
1R
0Q
0N
0T
0S
1U
#300000
0"
0H
0I
#310000
1"
1H
1I
1l#
0m#
0n#
0o#
1D$
0p#
1V
1T
0R
1P
1M
0]#
0l"
0;"
19"
0L
1J
0U
1S
1Q
0V
0D#
0<"
1I#
0:"
0M
1W
1U
0S
0Q
1N
0^#
1K
0I#
1="
1Y#
0W
0N
0Y#
1Z#
0Z#
1[#
0[#
#320000
0"
0H
0I
#330000
1"
1H
1I
0_#
1C$
0D$
1p#
1C
1]#
1>"
1<"
1;"
09"
1L
0J
12
0?"
0="
0>"
0<"
1:"
1M
1^#
0K
1@"
1?"
1="
1N
0@"
#340000
0"
0H
0I
#350000
1"
1H
1I
1o#
1_#
1D$
0p#
0C
0P
0M
0;"
19"
0L
1J
02
1>"
1<"
0:"
1P
1M
1Q
0N
1K
0?"
1I#
0="
0Q
1N
0I#
1@"
1Y#
0Y#
1Z#
0Z#
1[#
0[#
#360000
0"
0H
0I
