aluno2/simulation/qsim/PBLSD.msim.vcd
$comment
	File created using the following command:
		vcd file PBLSD.msim.vcd -direction
$end
$date
	Wed Sep 20 21:04:48 2023
$end
$version
	ModelSim Version 2020.1
$end
$timescale
	1ps
$end

$scope module testaMain_vlg_vec_tst $end
$var reg 1 ! clk $end
$var reg 16 " data [15:0] $end
$var wire 1 # done $end
$var wire 1 $ tx $end

$scope module i1 $end
$var wire 1 % gnd $end
$var wire 1 & vcc $end
$var wire 1 ' unknown $end
$var tri1 1 ( devclrn $end
$var tri1 1 ) devpor $end
$var tri1 1 * devoe $end
$var wire 1 + tx~output_o $end
$var wire 1 , done~output_o $end
$var wire 1 - clk~input_o $end
$var wire 1 . clk~inputclkctrl_outclk $end
$var wire 1 / TTsX|Add0~0_combout $end
$var wire 1 0 TTsX|Selector32~0_combout $end
$var wire 1 1 TTsX|Add0~1 $end
$var wire 1 2 TTsX|Add0~2_combout $end
$var wire 1 3 TTsX|Selector31~0_combout $end
$var wire 1 4 TTsX|Add0~3 $end
$var wire 1 5 TTsX|Add0~4_combout $end
$var wire 1 6 TTsX|Selector30~0_combout $end
$var wire 1 7 TTsX|Add0~5 $end
$var wire 1 8 TTsX|Add0~6_combout $end
$var wire 1 9 TTsX|Selector29~0_combout $end
$var wire 1 : TTsX|Add0~7 $end
$var wire 1 ; TTsX|Add0~8_combout $end
$var wire 1 < TTsX|Selector28~0_combout $end
$var wire 1 = TTsX|Add0~9 $end
$var wire 1 > TTsX|Add0~10_combout $end
$var wire 1 ? TTsX|Selector27~0_combout $end
$var wire 1 @ TTsX|Add0~11 $end
$var wire 1 A TTsX|Add0~12_combout $end
$var wire 1 B TTsX|Selector26~0_combout $end
$var wire 1 C TTsX|Add0~13 $end
$var wire 1 D TTsX|Add0~15 $end
$var wire 1 E TTsX|Add0~16_combout $end
$var wire 1 F TTsX|Selector24~0_combout $end
$var wire 1 G TTsX|Add0~17 $end
$var wire 1 H TTsX|Add0~18_combout $end
$var wire 1 I TTsX|Selector23~0_combout $end
$var wire 1 J TTsX|Add0~19 $end
$var wire 1 K TTsX|Add0~20_combout $end
$var wire 1 L TTsX|Selector22~0_combout $end
$var wire 1 M TTsX|Add0~21 $end
$var wire 1 N TTsX|Add0~22_combout $end
$var wire 1 O TTsX|Selector21~0_combout $end
$var wire 1 P TTsX|Add0~23 $end
$var wire 1 Q TTsX|Add0~24_combout $end
$var wire 1 R TTsX|Selector20~0_combout $end
$var wire 1 S TTsX|Add0~25 $end
$var wire 1 T TTsX|Add0~26_combout $end
$var wire 1 U TTsX|Selector19~0_combout $end
$var wire 1 V TTsX|Add0~27 $end
$var wire 1 W TTsX|Add0~28_combout $end
$var wire 1 X TTsX|Selector18~0_combout $end
$var wire 1 Y TTsX|Add0~29 $end
$var wire 1 Z TTsX|Add0~30_combout $end
$var wire 1 [ TTsX|Selector17~0_combout $end
$var wire 1 \ TTsX|Add0~31 $end
$var wire 1 ] TTsX|Add0~32_combout $end
$var wire 1 ^ TTsX|Selector16~0_combout $end
$var wire 1 _ TTsX|Add0~33 $end
$var wire 1 ` TTsX|Add0~34_combout $end
$var wire 1 a TTsX|Selector15~0_combout $end
$var wire 1 b TTsX|Add0~35 $end
$var wire 1 c TTsX|Add0~36_combout $end
$var wire 1 d TTsX|Selector14~0_combout $end
$var wire 1 e TTsX|Add0~37 $end
$var wire 1 f TTsX|Add0~38_combout $end
$var wire 1 g TTsX|Selector13~0_combout $end
$var wire 1 h TTsX|Equal2~5_combout $end
$var wire 1 i TTsX|Add0~39 $end
$var wire 1 j TTsX|Add0~40_combout $end
$var wire 1 k TTsX|Selector12~0_combout $end
$var wire 1 l TTsX|Add0~41 $end
$var wire 1 m TTsX|Add0~42_combout $end
$var wire 1 n TTsX|Selector11~0_combout $end
$var wire 1 o TTsX|Add0~43 $end
$var wire 1 p TTsX|Add0~44_combout $end
$var wire 1 q TTsX|Selector10~0_combout $end
$var wire 1 r TTsX|Add0~45 $end
$var wire 1 s TTsX|Add0~46_combout $end
$var wire 1 t TTsX|Selector9~0_combout $end
$var wire 1 u TTsX|Equal2~6_combout $end
$var wire 1 v TTsX|Equal2~7_combout $end
$var wire 1 w TTsX|Add0~47 $end
$var wire 1 x TTsX|Add0~48_combout $end
$var wire 1 y TTsX|Selector8~0_combout $end
$var wire 1 z TTsX|Add0~49 $end
$var wire 1 { TTsX|Add0~50_combout $end
$var wire 1 | TTsX|Selector7~0_combout $end
$var wire 1 } TTsX|Add0~51 $end
$var wire 1 ~ TTsX|Add0~52_combout $end
$var wire 1 !! TTsX|Selector6~0_combout $end
$var wire 1 "! TTsX|Add0~53 $end
$var wire 1 #! TTsX|Add0~54_combout $end
$var wire 1 $! TTsX|Selector5~0_combout $end
$var wire 1 %! TTsX|Add0~55 $end
$var wire 1 &! TTsX|Add0~56_combout $end
$var wire 1 '! TTsX|Selector4~0_combout $end
$var wire 1 (! TTsX|Add0~57 $end
$var wire 1 )! TTsX|Add0~58_combout $end
$var wire 1 *! TTsX|Selector3~0_combout $end
$var wire 1 +! TTsX|Add0~59 $end
$var wire 1 ,! TTsX|Add0~60_combout $end
$var wire 1 -! TTsX|Selector2~0_combout $end
$var wire 1 .! TTsX|Add0~61 $end
$var wire 1 /! TTsX|Add0~62_combout $end
$var wire 1 0! TTsX|Selector1~0_combout $end
$var wire 1 1! TTsX|Equal2~9_combout $end
$var wire 1 2! TTsX|Equal2~1_combout $end
$var wire 1 3! TTsX|Equal2~3_combout $end
$var wire 1 4! TTsX|Equal2~0_combout $end
$var wire 1 5! TTsX|Equal2~2_combout $end
$var wire 1 6! TTsX|Equal2~4_combout $end
$var wire 1 7! TTsX|Equal2~8_combout $end
$var wire 1 8! TTsX|Equal2~10_combout $end
$var wire 1 9! TTsX|Selector34~0_combout $end
$var wire 1 :! TTsX|state.IDLE~q $end
$var wire 1 ;! TTsX|Selector35~0_combout $end
$var wire 1 <! TTsX|state.START~q $end
$var wire 1 =! TTsX|pos~0_combout $end
$var wire 1 >! TTsX|Selector25~0_combout $end
$var wire 1 ?! TTsX|Add0~14_combout $end
$var wire 1 @! TTsX|state~9_combout $end
$var wire 1 A! TTsX|state~8_combout $end
$var wire 1 B! TTsX|state~11_combout $end
$var wire 1 C! TTsX|state~10_combout $end
$var wire 1 D! TTsX|state~12_combout $end
$var wire 1 E! TTsX|state~13_combout $end
$var wire 1 F! TTsX|state~14_combout $end
$var wire 1 G! TTsX|state~15_combout $end
$var wire 1 H! TTsX|state~16_combout $end
$var wire 1 I! TTsX|state~17_combout $end
$var wire 1 J! TTsX|Selector36~0_combout $end
$var wire 1 K! TTsX|state.DATA~q $end
$var wire 1 L! TTsX|state~18_combout $end
$var wire 1 M! TTsX|state.STOP~q $end
$var wire 1 N! data[10]~input_o $end
$var wire 1 O! TTsX|buffer[10]~feeder_combout $end
$var wire 1 P! data[11]~input_o $end
$var wire 1 Q! data[8]~input_o $end
$var wire 1 R! data[9]~input_o $end
$var wire 1 S! TTsX|buffer[9]~feeder_combout $end
$var wire 1 T! TTsX|Mux0~0_combout $end
$var wire 1 U! TTsX|Mux0~1_combout $end
$var wire 1 V! data[2]~input_o $end
$var wire 1 W! TTsX|buffer[2]~feeder_combout $end
$var wire 1 X! data[3]~input_o $end
$var wire 1 Y! data[1]~input_o $end
$var wire 1 Z! TTsX|buffer[1]~feeder_combout $end
$var wire 1 [! data[0]~input_o $end
$var wire 1 \! TTsX|Mux0~4_combout $end
$var wire 1 ]! TTsX|Mux0~5_combout $end
$var wire 1 ^! data[5]~input_o $end
$var wire 1 _! TTsX|buffer[5]~feeder_combout $end
$var wire 1 `! data[7]~input_o $end
$var wire 1 a! data[6]~input_o $end
$var wire 1 b! TTsX|buffer[6]~feeder_combout $end
$var wire 1 c! data[4]~input_o $end
$var wire 1 d! TTsX|Mux0~2_combout $end
$var wire 1 e! TTsX|Mux0~3_combout $end
$var wire 1 f! TTsX|Mux0~6_combout $end
$var wire 1 g! data[13]~input_o $end
$var wire 1 h! TTsX|buffer[13]~feeder_combout $end
$var wire 1 i! data[15]~input_o $end
$var wire 1 j! data[12]~input_o $end
$var wire 1 k! data[14]~input_o $end
$var wire 1 l! TTsX|buffer[14]~feeder_combout $end
$var wire 1 m! TTsX|Mux0~7_combout $end
$var wire 1 n! TTsX|Mux0~8_combout $end
$var wire 1 o! TTsX|Mux0~9_combout $end
$var wire 1 p! TTsX|Selector33~0_combout $end
$var wire 1 q! TTsX|tx~q $end
$var wire 1 r! TTsX|Selector0~0_combout $end
$var wire 1 s! TTsX|done~q $end
$var wire 1 t! TTsX|buffer [15] $end
$var wire 1 u! TTsX|buffer [14] $end
$var wire 1 v! TTsX|buffer [13] $end
$var wire 1 w! TTsX|buffer [12] $end
$var wire 1 x! TTsX|buffer [11] $end
$var wire 1 y! TTsX|buffer [10] $end
$var wire 1 z! TTsX|buffer [9] $end
$var wire 1 {! TTsX|buffer [8] $end
$var wire 1 |! TTsX|buffer [7] $end
$var wire 1 }! TTsX|buffer [6] $end
$var wire 1 ~! TTsX|buffer [5] $end
$var wire 1 !" TTsX|buffer [4] $end
$var wire 1 "" TTsX|buffer [3] $end
$var wire 1 #" TTsX|buffer [2] $end
$var wire 1 $" TTsX|buffer [1] $end
$var wire 1 %" TTsX|buffer [0] $end
$var wire 1 &" TTsX|pos [31] $end
$var wire 1 '" TTsX|pos [30] $end
$var wire 1 (" TTsX|pos [29] $end
$var wire 1 )" TTsX|pos [28] $end
$var wire 1 *" TTsX|pos [27] $end
$var wire 1 +" TTsX|pos [26] $end
$var wire 1 ," TTsX|pos [25] $end
$var wire 1 -" TTsX|pos [24] $end
$var wire 1 ." TTsX|pos [23] $end
$var wire 1 /" TTsX|pos [22] $end
$var wire 1 0" TTsX|pos [21] $end
$var wire 1 1" TTsX|pos [20] $end
$var wire 1 2" TTsX|pos [19] $end
$var wire 1 3" TTsX|pos [18] $end
$var wire 1 4" TTsX|pos [17] $end
$var wire 1 5" TTsX|pos [16] $end
$var wire 1 6" TTsX|pos [15] $end
$var wire 1 7" TTsX|pos [14] $end
$var wire 1 8" TTsX|pos [13] $end
$var wire 1 9" TTsX|pos [12] $end
$var wire 1 :" TTsX|pos [11] $end
$var wire 1 ;" TTsX|pos [10] $end
$var wire 1 <" TTsX|pos [9] $end
$var wire 1 =" TTsX|pos [8] $end
$var wire 1 >" TTsX|pos [7] $end
$var wire 1 ?" TTsX|pos [6] $end
$var wire 1 @" TTsX|pos [5] $end
$var wire 1 A" TTsX|pos [4] $end
$var wire 1 B" TTsX|pos [3] $end
$var wire 1 C" TTsX|pos [2] $end
$var wire 1 D" TTsX|pos [1] $end
$var wire 1 E" TTsX|pos [0] $end
$upscope $end
$upscope $end
$enddefinitions $end
#0
$dumpvars
0!
b1110110010101 "
0#
1$
0%
1&
x'
1(
1)
1*
1+
0,
0-
0.
1/
00
01
02
03
14
05
06
07
08
09
1:
0;
0<
0=
0>
0?
1@
0A
0B
0C
1D
0E
0F
0G
0H
0I
1J
0K
0L
0M
0N
0O
1P
0Q
0R
0S
0T
0U
1V
0W
0X
0Y
0Z
0[
1\
0]
0^
0_
0`
0a
1b
0c
0d
0e
0f
0g
1h
1i
0j
0k
0l
0m
0n
1o
0p
0q
0r
0s
0t
1u
1v
1w
0x
0y
0z
0{
0|
1}
0~
0!!
0"!
0#!
0$!
1%!
0&!
0'!
0(!
0)!
0*!
1+!
0,!
0-!
0.!
0/!
00!
11!
12!
13!
04!
15!
06!
17!
08!
19!
0:!
1;!
0<!
1=!
0>!
0?!
1@!
0A!
1B!
1C!
0D!
1E!
1F!
1G!
1H!
1I!
0J!
0K!
0L!
0M!
1N!
1O!
1P!
1Q!
0R!
0S!
0T!
0U!
1V!
1W!
0X!
0Y!
0Z!
1[!
0\!
0]!
0^!
0_!
1`!
0a!
0b!
1c!
0d!
0e!
0f!
0g!
0h!
0i!
1j!
0k!
0l!
0m!
0n!
0o!
0p!
0q!
0r!
0s!
0%"
0$"
0#"
0""
0!"
0~!
0}!
0|!
0{!
0z!
0y!
0x!
0w!
0v!
0u!
0t!
0E"
0D"
0C"
0B"
0A"
0@"
0?"
0>"
0="
0<"
0;"
0:"
09"
08"
07"
06"
05"
04"
03"
02"
01"
00"
0/"
0."
0-"
0,"
0+"
0*"
0)"
0("
0'"
0&"
$end
#10000
1!
1-
1.
1w!
1!"
1|!
1%"
1#"
1{!
1x!
1y!
1<!
1:!
1m!
1d!
1\!
1T!
0=!
1J!
1p!
0;!
1n!
1e!
1]!
1U!
1f!
1o!
#20000
0!
0-
0.
#30000
1!
1-
1.
1q!
1K!
0<!
0+
10
1=!
0$
0p!
#40000
0!
0-
0.
#50000
1!
1-
1.
0q!
1E"
1+
0n!
0m!
0d!
0\!
0T!
11
0/
1$
0e!
0]!
0U!
12
00
0f!
13
0o!
1p!
#60000
0!
0-
0.
#70000
1!
1-
1.
1q!
1D"
0E"
0+
1]!
1U!
04
02
01
1/
0$
1f!
15
03
14
12
10
1o!
0@!
16
05
13
1@!
06
0p!
#80000
0!
0-
0.
#90000
1!
1-
1.
0q!
1E"
1+
1m!
1d!
1\!
1T!
11
0/
1$
1e!
0]!
04
02
00
0f!
15
03
0o!
0@!
16
1p!
#100000
0!
0-
0.
#110000
1!
1-
1.
1q!
1C"
0D"
0E"
0+
1f!
17
05
1]!
14
12
1n!
01
1/
0$
1o!
18
1@!
06
07
15
13
02
10
19
08
0@!
16
03
0p!
09
#120000
0!
0-
0.
#130000
1!
1-
1.
0q!
1E"
1+
0n!
0m!
0d!
0\!
0T!
11
0/
1$
0e!
0]!
0U!
12
00
0f!
13
0o!
1p!
#140000
0!
0-
0.
#150000
1!
1-
1.
1q!
1D"
0E"
0+
1]!
1U!
04
02
01
1/
0$
17
05
03
14
12
10
18
1@!
06
07
15
13
19
08
0@!
16
09
#160000
0!
0-
0.
#170000
1!
1-
1.
1E"
1m!
1d!
1\!
1T!
11
0/
1e!
0]!
04
02
00
1f!
17
05
03
1o!
18
1@!
06
1A!
19
0p!
1D!
1L!
0J!
#180000
0!
0-
0.
#190000
1!
1-
1.
0q!
1M!
0K!
1B"
0C"
0D"
0E"
1+
0=!
09
0o!
0f!
14!
0:
08
07
15
1]!
14
12
1n!
01
1/
1$
09!
0L!
19
1o!
16!
1;
0A!
1:
18
0@!
05
02
1r!
18!
0D!
0;
1@!
1;!
19!
0r!
#200000
0!
0-
0.
#210000
1!
1-
1.
0M!
1<!
1p!
0;!
1J!
#220000
0!
0-
0.
#230000
1!
1-
1.
1q!
1K!
0<!
0+
10
1=!
0$
0p!
#240000
0!
0-
0.
#250000
1!
1-
1.
0q!
1E"
1+
0n!
0m!
0d!
0\!
0T!
04!
11
0/
1$
0e!
0]!
0U!
06!
12
1A!
00
0o!
08!
0A!
13
1D!
0D!
1p!
1L!
0J!
0L!
1J!
#260000
0!
0-
0.
#270000
1!
1-
1.
1q!
1D"
0E"
0+
1]!
1U!
04
02
01
1/
0$
1o!
15
03
14
12
10
0@!
16
05
13
0p!
1@!
06
#280000
0!
0-
0.
#290000
1!
1-
1.
0q!
1E"
1+
1m!
1d!
1\!
1T!
11
0/
1$
1e!
0]!
04
02
00
15
1A!
03
0@!
16
1D!
0D!
1L!
0J!
0L!
1J!
#300000
0!
0-
0.
#310000
1!
1-
1.
1C"
0D"
0E"
1f!
17
05
1]!
14
12
1n!
01
1/
0:
08
1@!
06
07
15
0A!
13
02
10
1;
09
1:
18
0@!
16
03
1<
0;
19
0<
#320000
0!
0-
0.
#330000
1!
1-
1.
1E"
0n!
0m!
0d!
0\!
0T!
11
0/
0o!
0e!
0]!
0U!
12
1A!
00
0A!
13
1p!
#340000
0!
0-
0.
#350000
1!
1-
1.
1q!
1D"
0E"
0+
1]!
1U!
04
02
01
1/
0$
17
05
03
14
12
10
0:
08
1@!
06
07
15
13
1;
09
1:
18
0@!
16
1<
0;
19
0<
#360000
0!
0-
0.
#370000
1!
1-
1.
1E"
1m!
1d!
1\!
1T!
11
0/
1e!
0]!
04
02
00
17
05
1A!
03
0:
08
1@!
06
1;
0A!
09
1D!
1A!
1<
0D!
1L!
0J!
1D!
0L!
1J!
1L!
0J!
#380000
0!
0-
0.
#390000
1!
1-
1.
1M!
0K!
1A"
0B"
0C"
0D"
0E"
0=!
0<
02!
1=
0;
1o!
0f!
1:
18
07
15
1]!
14
12
1n!
01
1/
0p!
09!
0L!
1<
1>
0A!
0o!
0=
1;
08
0@!
1f!
05
02
1r!
0D!
0>
1o!
1@!
#400000
b110110010101 "
b10110010101 "
b110010101 "
b10010101 "
b10101 "
b101 "
b1 "
b0 "
0!
0[!
0V!
0c!
0`!
0Q!
0N!
0P!
0j!
0-
0.
0W!
0O!
#410000
1!
1-
1.
0q!
0M!
0:!
1s!
1,
1+
1=!
1$
1#
1;!
19!
0<
0r!
#420000
0!
0-
0.
#430000
1!
1-
1.
0w!
0!"
0|!
0%"
0#"
0{!
0x!
0y!
1<!
1:!
0A"
0s!
0,
0m!
0d!
0\!
0T!
0=!
12!
0;
0#
1J!
1p!
0;!
0n!
0e!
0]!
0U!
0f!
0o!
#440000
0!
0-
0.
#450000
1!
1-
1.
1q!
1K!
0<!
0+
10
1=!
0$
#460000
0!
0-
0.
#470000
1!
1-
1.
1E"
11
0/
12
00
13
#480000
0!
0-
0.
#490000
1!
1-
1.
1D"
0E"
04
02
01
1/
15
03
14
12
10
0@!
16
05
13
1@!
06
#500000
0!
0-
0.
#510000
1!
1-
1.
1E"
1m!
1d!
1\!
1T!
11
0/
04
02
00
15
03
0@!
16
#520000
0!
0-
0.
#530000
1!
1-
1.
1C"
0D"
0E"
17
05
0m!
0d!
1]!
0\!
1U!
0T!
14
12
1n!
1e!
01
1/
18
1@!
06
0n!
0e!
1f!
0]!
0U!
07
15
13
02
10
19
1o!
0f!
08
0@!
16
03
0o!
09
0p!
1p!
#540000
0!
0-
0.
#550000
1!
1-
1.
1E"
11
0/
12
00
13
#560000
0!
0-
0.
#570000
1!
1-
1.
1D"
0E"
04
02
01
1/
17
05
03
14
12
10
18
1@!
06
07
15
13
19
08
0@!
16
09
#580000
0!
0-
0.
#590000
1!
1-
1.
1E"
1m!
1d!
1\!
1T!
11
0/
04
02
00
17
05
03
18
1@!
06
1A!
19
1D!
1L!
0J!
#600000
0!
0-
0.
#610000
1!
1-
1.
1M!
0K!
1B"
0C"
0D"
0E"
0=!
09
14!
0:
08
07
15
0m!
0d!
1]!
0\!
1U!
0T!
14
12
1n!
1e!
01
1/
0p!
09!
0L!
19
16!
1;
0A!
1:
18
0@!
0n!
0e!
0]!
1o!
0U!
05
02
1r!
18!
0D!
0;
0o!
1@!
1;!
19!
0r!
#620000
0!
0-
0.
#630000
1!
1-
1.
0q!
0M!
1<!
1+
1$
1p!
0;!
1J!
#640000
0!
0-
0.
#650000
1!
1-
1.
1q!
1K!
0<!
0+
10
1=!
0$
#660000
0!
0-
0.
#670000
1!
1-
1.
1E"
04!
11
0/
06!
12
1A!
00
08!
0A!
13
1D!
0D!
1L!
0J!
0L!
1J!
#680000
0!
0-
0.
#690000
1!
1-
1.
1D"
0E"
04
02
01
1/
15
03
14
12
10
0@!
16
05
13
1@!
06
#700000
0!
0-
0.
#710000
1!
1-
1.
1E"
1m!
1d!
1\!
1T!
11
0/
04
02
00
15
1A!
03
0@!
16
1D!
0D!
1L!
0J!
0L!
1J!
#720000
0!
0-
0.
#730000
1!
1-
1.
1C"
0D"
0E"
1f!
17
05
0m!
0d!
1]!
0\!
1U!
0T!
14
12
1n!
1e!
01
1/
1o!
0:
08
1@!
06
0n!
0e!
0]!
0U!
07
15
0A!
13
02
10
1;
09
0o!
1:
18
0@!
16
03
0p!
1<
0;
19
1p!
0<
#740000
0!
0-
0.
#750000
1!
1-
1.
1E"
11
0/
12
1A!
00
0A!
13
#760000
0!
0-
0.
#770000
1!
1-
1.
1D"
0E"
04
02
01
1/
17
05
03
14
12
10
0:
08
1@!
06
07
15
13
1;
09
1:
18
0@!
16
1<
0;
19
0<
#780000
0!
0-
0.
#790000
1!
1-
1.
1E"
1m!
1d!
1\!
1T!
11
0/
04
02
00
17
05
1A!
03
0:
08
1@!
06
1;
0A!
09
1D!
1A!
1<
0D!
1L!
0J!
1D!
0L!
1J!
1L!
0J!
#800000
0!
0-
0.
#810000
1!
1-
1.
1M!
0K!
1A"
0B"
0C"
0D"
0E"
0=!
0<
02!
1=
0;
1o!
0f!
1:
18
07
15
0m!
0d!
1]!
0\!
1U!
0T!
14
12
1n!
1e!
01
1/
0p!
09!
0L!
1<
1>
0A!
0o!
0=
1;
08
0@!
0n!
0e!
1f!
0]!
0U!
05
02
1r!
0D!
0>
1o!
0f!
1@!
0o!
#820000
0!
0-
0.
#830000
1!
1-
1.
0q!
0M!
0:!
1s!
1,
1+
1=!
1$
1#
1;!
19!
0<
0r!
#840000
0!
0-
0.
#850000
1!
1-
1.
1<!
1:!
0A"
0s!
0,
0=!
12!
0;
0#
1J!
1p!
0;!
#860000
0!
0-
0.
#870000
1!
1-
1.
1q!
1K!
0<!
0+
10
1=!
0$
#880000
0!
0-
0.
#890000
1!
1-
1.
1E"
11
0/
12
00
13
#900000
0!
0-
0.
#910000
1!
1-
1.
1D"
0E"
04
02
01
1/
15
03
14
12
10
0@!
16
05
13
1@!
06
#920000
0!
0-
0.
#930000
1!
1-
1.
1E"
1m!
1d!
1\!
1T!
11
0/
04
02
00
15
03
0@!
16
#940000
0!
0-
0.
#950000
1!
1-
1.
1C"
0D"
0E"
17
05
0m!
0d!
1]!
0\!
1U!
0T!
14
12
1n!
1e!
01
1/
18
1@!
06
0n!
0e!
1f!
0]!
0U!
07
15
13
02
10
19
1o!
0f!
08
0@!
16
03
0o!
09
0p!
1p!
#960000
0!
0-
0.
#970000
1!
1-
1.
1E"
11
0/
12
00
13
#980000
0!
0-
0.
#990000
1!
1-
1.
1D"
0E"
04
02
01
1/
17
05
03
14
12
10
18
1@!
06
07
15
13
19
08
0@!
16
09
