aluno2/simulation/qsim/PBLSD.msim.vcd
$comment
	File created using the following command:
		vcd file PBLSD.msim.vcd -direction
$end
$date
	Fri Sep 01 21:16:27 2023
$end
$version
	ModelSim Version 2020.1
$end
$timescale
	1ps
$end

$scope module main_vlg_vec_tst $end
$var reg 1 ! ch2 $end
$var reg 1 " clk $end
$var reg 1 # rx $end
$var wire 1 $ colum $end
$var wire 1 % control $end
$var wire 1 & linhas [7] $end
$var wire 1 ' linhas [6] $end
$var wire 1 ( linhas [5] $end
$var wire 1 ) linhas [4] $end
$var wire 1 * linhas [3] $end
$var wire 1 + linhas [2] $end
$var wire 1 , linhas [1] $end
$var wire 1 - linhas [0] $end
$var wire 1 . tx $end

$scope module i1 $end
$var wire 1 / gnd $end
$var wire 1 0 vcc $end
$var wire 1 1 unknown $end
$var tri1 1 2 devclrn $end
$var tri1 1 3 devpor $end
$var tri1 1 4 devoe $end
$var wire 1 5 ch2~input_o $end
$var wire 1 6 colum~output_o $end
$var wire 1 7 linhas[0]~output_o $end
$var wire 1 8 linhas[1]~output_o $end
$var wire 1 9 linhas[2]~output_o $end
$var wire 1 : linhas[3]~output_o $end
$var wire 1 ; linhas[4]~output_o $end
$var wire 1 < linhas[5]~output_o $end
$var wire 1 = linhas[6]~output_o $end
$var wire 1 > linhas[7]~output_o $end
$var wire 1 ? tx~output_o $end
$var wire 1 @ control~output_o $end
$var wire 1 A clk~input_o $end
$var wire 1 B clk~inputclkctrl_outclk $end
$var wire 1 C recep|Add0~0_combout $end
$var wire 1 D recep|Selector23~0_combout $end
$var wire 1 E recep|Add0~1 $end
$var wire 1 F recep|Add0~2_combout $end
$var wire 1 G recep|Selector30~0_combout $end
$var wire 1 H recep|Add0~3 $end
$var wire 1 I recep|Add0~4_combout $end
$var wire 1 J recep|Selector29~0_combout $end
$var wire 1 K recep|Add0~5 $end
$var wire 1 L recep|Add0~6_combout $end
$var wire 1 M recep|Selector28~0_combout $end
$var wire 1 N recep|Add0~7 $end
$var wire 1 O recep|Add0~8_combout $end
$var wire 1 P recep|Selector27~0_combout $end
$var wire 1 Q recep|Add0~9 $end
$var wire 1 R recep|Add0~10_combout $end
$var wire 1 S recep|Selector26~0_combout $end
$var wire 1 T recep|Add0~11 $end
$var wire 1 U recep|Add0~12_combout $end
$var wire 1 V recep|Selector25~0_combout $end
$var wire 1 W recep|Add0~13 $end
$var wire 1 X recep|Add0~14_combout $end
$var wire 1 Y recep|Selector24~0_combout $end
$var wire 1 Z recep|Add0~15 $end
$var wire 1 [ recep|Add0~17 $end
$var wire 1 \ recep|Add0~18_combout $end
$var wire 1 ] recep|Selector22~0_combout $end
$var wire 1 ^ recep|Add0~19 $end
$var wire 1 _ recep|Add0~20_combout $end
$var wire 1 ` recep|Selector21~0_combout $end
$var wire 1 a recep|Add0~21 $end
$var wire 1 b recep|Add0~22_combout $end
$var wire 1 c recep|Selector20~0_combout $end
$var wire 1 d recep|Add0~23 $end
$var wire 1 e recep|Add0~24_combout $end
$var wire 1 f recep|Selector19~0_combout $end
$var wire 1 g recep|Add0~25 $end
$var wire 1 h recep|Add0~26_combout $end
$var wire 1 i recep|Selector18~0_combout $end
$var wire 1 j recep|Add0~27 $end
$var wire 1 k recep|Add0~28_combout $end
$var wire 1 l recep|Selector17~0_combout $end
$var wire 1 m recep|Add0~29 $end
$var wire 1 n recep|Add0~30_combout $end
$var wire 1 o recep|Selector16~0_combout $end
$var wire 1 p recep|Add0~31 $end
$var wire 1 q recep|Add0~32_combout $end
$var wire 1 r recep|Selector15~0_combout $end
$var wire 1 s recep|Add0~33 $end
$var wire 1 t recep|Add0~34_combout $end
$var wire 1 u recep|Selector14~0_combout $end
$var wire 1 v recep|Add0~35 $end
$var wire 1 w recep|Add0~36_combout $end
$var wire 1 x recep|Selector13~0_combout $end
$var wire 1 y recep|Add0~37 $end
$var wire 1 z recep|Add0~38_combout $end
$var wire 1 { recep|Selector12~0_combout $end
$var wire 1 | recep|Add0~39 $end
$var wire 1 } recep|Add0~40_combout $end
$var wire 1 ~ recep|Selector11~0_combout $end
$var wire 1 !! recep|Add0~41 $end
$var wire 1 "! recep|Add0~42_combout $end
$var wire 1 #! recep|Selector10~0_combout $end
$var wire 1 $! recep|Add0~43 $end
$var wire 1 %! recep|Add0~44_combout $end
$var wire 1 &! recep|Selector9~0_combout $end
$var wire 1 '! recep|Add0~45 $end
$var wire 1 (! recep|Add0~46_combout $end
$var wire 1 )! recep|Selector8~0_combout $end
$var wire 1 *! recep|Add0~47 $end
$var wire 1 +! recep|Add0~48_combout $end
$var wire 1 ,! recep|Selector7~0_combout $end
$var wire 1 -! recep|Equal0~5_combout $end
$var wire 1 .! recep|Equal0~8_combout $end
$var wire 1 /! recep|Equal0~9_combout $end
$var wire 1 0! recep|Add0~49 $end
$var wire 1 1! recep|Add0~50_combout $end
$var wire 1 2! recep|Selector6~0_combout $end
$var wire 1 3! recep|Add0~51 $end
$var wire 1 4! recep|Add0~52_combout $end
$var wire 1 5! recep|Selector5~0_combout $end
$var wire 1 6! recep|Add0~53 $end
$var wire 1 7! recep|Add0~54_combout $end
$var wire 1 8! recep|Selector4~0_combout $end
$var wire 1 9! recep|Add0~55 $end
$var wire 1 :! recep|Add0~56_combout $end
$var wire 1 ;! recep|Selector3~0_combout $end
$var wire 1 <! recep|Equal0~6_combout $end
$var wire 1 =! recep|Add0~57 $end
$var wire 1 >! recep|Add0~58_combout $end
$var wire 1 ?! recep|Selector2~0_combout $end
$var wire 1 @! recep|Add0~59 $end
$var wire 1 A! recep|Add0~60_combout $end
$var wire 1 B! recep|Selector1~0_combout $end
$var wire 1 C! recep|Add0~61 $end
$var wire 1 D! recep|Add0~62_combout $end
$var wire 1 E! recep|Selector0~0_combout $end
$var wire 1 F! recep|Equal0~7_combout $end
$var wire 1 G! recep|Equal0~3_combout $end
$var wire 1 H! recep|Equal0~1_combout $end
$var wire 1 I! recep|Equal0~2_combout $end
$var wire 1 J! recep|Equal0~0_combout $end
$var wire 1 K! recep|Equal0~4_combout $end
$var wire 1 L! recep|Equal0~10_combout $end
$var wire 1 M! recep|pos[31]~0_combout $end
$var wire 1 N! recep|Add0~16_combout $end
$var wire 1 O! recep|state~7_combout $end
$var wire 1 P! recep|state~6_combout $end
$var wire 1 Q! recep|state~9_combout $end
$var wire 1 R! recep|state~8_combout $end
$var wire 1 S! recep|state~10_combout $end
$var wire 1 T! recep|state~5_combout $end
$var wire 1 U! recep|state~17_combout $end
$var wire 1 V! recep|state~18_combout $end
$var wire 1 W! recep|state~19_combout $end
$var wire 1 X! recep|state~16_combout $end
$var wire 1 Y! recep|state~20_combout $end
$var wire 1 Z! recep|state.STOP~q $end
$var wire 1 [! rx~input_o $end
$var wire 1 \! recep|Selector33~0_combout $end
$var wire 1 ]! recep|state.START~q $end
$var wire 1 ^! recep|state~14_combout $end
$var wire 1 _! recep|state~11_combout $end
$var wire 1 `! recep|state~12_combout $end
$var wire 1 a! recep|state~13_combout $end
$var wire 1 b! recep|state~15_combout $end
$var wire 1 c! recep|Selector34~0_combout $end
$var wire 1 d! recep|state.DATA~q $end
$var wire 1 e! recep|Selector31~0_combout $end
$var wire 1 f! recep|Decoder0~0_combout $end
$var wire 1 g! recep|Decoder0~1_combout $end
$var wire 1 h! recep|Decoder0~2_combout $end
$var wire 1 i! recep|data[0]~0_combout $end
$var wire 1 j! recep|Decoder0~3_combout $end
$var wire 1 k! recep|data[1]~1_combout $end
$var wire 1 l! recep|Decoder0~4_combout $end
$var wire 1 m! recep|Decoder0~5_combout $end
$var wire 1 n! recep|data[2]~2_combout $end
$var wire 1 o! recep|Decoder0~6_combout $end
$var wire 1 p! recep|data[3]~3_combout $end
$var wire 1 q! recep|Decoder0~7_combout $end
$var wire 1 r! recep|data[4]~4_combout $end
$var wire 1 s! recep|Decoder0~8_combout $end
$var wire 1 t! recep|data[5]~5_combout $end
$var wire 1 u! recep|Decoder0~9_combout $end
$var wire 1 v! recep|data[6]~6_combout $end
$var wire 1 w! recep|data[7]~7_combout $end
$var wire 1 x! recep|concluded~0_combout $end
$var wire 1 y! recep|concluded~q $end
$var wire 1 z! transm|Selector34~0_combout $end
$var wire 1 {! transm|state.START~q $end
$var wire 1 |! transm|Add0~0_combout $end
$var wire 1 }! transm|Selector31~0_combout $end
$var wire 1 ~! transm|Add0~1 $end
$var wire 1 !" transm|Add0~2_combout $end
$var wire 1 "" transm|Selector30~0_combout $end
$var wire 1 #" transm|Add0~3 $end
$var wire 1 $" transm|Add0~4_combout $end
$var wire 1 %" transm|Selector29~0_combout $end
$var wire 1 &" transm|Add0~5 $end
$var wire 1 '" transm|Add0~6_combout $end
$var wire 1 (" transm|Selector28~0_combout $end
$var wire 1 )" transm|Add0~7 $end
$var wire 1 *" transm|Add0~8_combout $end
$var wire 1 +" transm|Selector27~0_combout $end
$var wire 1 ," transm|Add0~9 $end
$var wire 1 -" transm|Add0~10_combout $end
$var wire 1 ." transm|Selector26~0_combout $end
$var wire 1 /" transm|Add0~11 $end
$var wire 1 0" transm|Add0~12_combout $end
$var wire 1 1" transm|Selector25~0_combout $end
$var wire 1 2" transm|Add0~13 $end
$var wire 1 3" transm|Add0~14_combout $end
$var wire 1 4" transm|Selector24~0_combout $end
$var wire 1 5" transm|Add0~15 $end
$var wire 1 6" transm|Add0~16_combout $end
$var wire 1 7" transm|Selector23~0_combout $end
$var wire 1 8" transm|Add0~17 $end
$var wire 1 9" transm|Add0~18_combout $end
$var wire 1 :" transm|Selector22~0_combout $end
$var wire 1 ;" transm|Add0~19 $end
$var wire 1 <" transm|Add0~20_combout $end
$var wire 1 =" transm|Selector21~0_combout $end
$var wire 1 >" transm|Add0~21 $end
$var wire 1 ?" transm|Add0~22_combout $end
$var wire 1 @" transm|Selector20~0_combout $end
$var wire 1 A" transm|Add0~23 $end
$var wire 1 B" transm|Add0~24_combout $end
$var wire 1 C" transm|Selector19~0_combout $end
$var wire 1 D" transm|Add0~25 $end
$var wire 1 E" transm|Add0~26_combout $end
$var wire 1 F" transm|Selector18~0_combout $end
$var wire 1 G" transm|Add0~27 $end
$var wire 1 H" transm|Add0~28_combout $end
$var wire 1 I" transm|Selector17~0_combout $end
$var wire 1 J" transm|Add0~29 $end
$var wire 1 K" transm|Add0~30_combout $end
$var wire 1 L" transm|Selector16~0_combout $end
$var wire 1 M" transm|Add0~31 $end
$var wire 1 N" transm|Add0~32_combout $end
$var wire 1 O" transm|Selector15~0_combout $end
$var wire 1 P" transm|Add0~33 $end
$var wire 1 Q" transm|Add0~34_combout $end
$var wire 1 R" transm|Selector14~0_combout $end
$var wire 1 S" transm|Add0~35 $end
$var wire 1 T" transm|Add0~36_combout $end
$var wire 1 U" transm|Selector13~0_combout $end
$var wire 1 V" transm|Add0~37 $end
$var wire 1 W" transm|Add0~38_combout $end
$var wire 1 X" transm|Selector12~0_combout $end
$var wire 1 Y" transm|Add0~39 $end
$var wire 1 Z" transm|Add0~40_combout $end
$var wire 1 [" transm|Selector11~0_combout $end
$var wire 1 \" transm|Add0~41 $end
$var wire 1 ]" transm|Add0~42_combout $end
$var wire 1 ^" transm|Selector10~0_combout $end
$var wire 1 _" transm|Add0~43 $end
$var wire 1 `" transm|Add0~44_combout $end
$var wire 1 a" transm|Selector9~0_combout $end
$var wire 1 b" transm|Add0~45 $end
$var wire 1 c" transm|Add0~46_combout $end
$var wire 1 d" transm|Selector8~0_combout $end
$var wire 1 e" transm|Add0~47 $end
$var wire 1 f" transm|Add0~48_combout $end
$var wire 1 g" transm|Selector7~0_combout $end
$var wire 1 h" transm|Add0~49 $end
$var wire 1 i" transm|Add0~50_combout $end
$var wire 1 j" transm|Selector6~0_combout $end
$var wire 1 k" transm|Add0~51 $end
$var wire 1 l" transm|Add0~52_combout $end
$var wire 1 m" transm|Selector5~0_combout $end
$var wire 1 n" transm|Add0~53 $end
$var wire 1 o" transm|Add0~54_combout $end
$var wire 1 p" transm|Selector4~0_combout $end
$var wire 1 q" transm|Add0~55 $end
$var wire 1 r" transm|Add0~56_combout $end
$var wire 1 s" transm|Selector3~0_combout $end
$var wire 1 t" transm|Add0~57 $end
$var wire 1 u" transm|Add0~58_combout $end
$var wire 1 v" transm|Selector2~0_combout $end
$var wire 1 w" transm|Add0~59 $end
$var wire 1 x" transm|Add0~60_combout $end
$var wire 1 y" transm|Selector1~0_combout $end
$var wire 1 z" transm|Add0~61 $end
$var wire 1 {" transm|Add0~62_combout $end
$var wire 1 |" transm|Equal0~5_combout $end
$var wire 1 }" transm|Equal0~1_combout $end
$var wire 1 ~" transm|Equal0~0_combout $end
$var wire 1 !# transm|Equal0~2_combout $end
$var wire 1 "# transm|Equal0~3_combout $end
$var wire 1 ## transm|Equal0~4_combout $end
$var wire 1 $# transm|Equal0~6_combout $end
$var wire 1 %# transm|Equal0~7_combout $end
$var wire 1 &# transm|Equal0~8_combout $end
$var wire 1 '# transm|Equal0~9_combout $end
$var wire 1 (# transm|Equal0~10_combout $end
$var wire 1 )# transm|Equal1~5_combout $end
$var wire 1 *# transm|Equal1~6_combout $end
$var wire 1 +# transm|Equal1~0_combout $end
$var wire 1 ,# transm|Equal1~1_combout $end
$var wire 1 -# transm|Equal1~2_combout $end
$var wire 1 .# transm|Equal1~3_combout $end
$var wire 1 /# transm|Equal1~4_combout $end
$var wire 1 0# transm|Equal1~7_combout $end
$var wire 1 1# transm|Equal1~8_combout $end
$var wire 1 2# transm|Equal1~9_combout $end
$var wire 1 3# transm|Equal1~10_combout $end
$var wire 1 4# transm|Selector35~0_combout $end
$var wire 1 5# transm|state.DATA~q $end
$var wire 1 6# transm|state~8_combout $end
$var wire 1 7# transm|state.STOP~q $end
$var wire 1 8# transm|pos~2_combout $end
$var wire 1 9# transm|Selector0~0_combout $end
$var wire 1 :# transm|Equal2~9_combout $end
$var wire 1 ;# transm|Equal2~8_combout $end
$var wire 1 <# transm|Equal2~5_combout $end
$var wire 1 =# transm|Equal2~6_combout $end
$var wire 1 ># transm|Equal2~7_combout $end
$var wire 1 ?# transm|Equal2~3_combout $end
$var wire 1 @# transm|Equal2~1_combout $end
$var wire 1 A# transm|Equal2~2_combout $end
$var wire 1 B# transm|Equal2~0_combout $end
$var wire 1 C# transm|Equal2~4_combout $end
$var wire 1 D# transm|Equal2~10_combout $end
$var wire 1 E# transm|Selector33~0_combout $end
$var wire 1 F# transm|state.IDLE~q $end
$var wire 1 G# transm|Mux0~0_combout $end
$var wire 1 H# transm|Mux0~1_combout $end
$var wire 1 I# recep|Decoder0~12_combout $end
$var wire 1 J# recep|data[11]~10_combout $end
$var wire 1 K# recep|Decoder0~11_combout $end
$var wire 1 L# recep|data[9]~9_combout $end
$var wire 1 M# transm|Mux0~2_combout $end
$var wire 1 N# recep|Equal0~11_combout $end
$var wire 1 O# recep|Decoder0~10_combout $end
$var wire 1 P# recep|data[8]~11_combout $end
$var wire 1 Q# recep|data[10]~8_combout $end
$var wire 1 R# transm|Mux0~3_combout $end
$var wire 1 S# recep|data[12]~15_combout $end
$var wire 1 T# recep|data[13]~12_combout $end
$var wire 1 U# recep|data[15]~14_combout $end
$var wire 1 V# recep|data[14]~13_combout $end
$var wire 1 W# transm|Mux0~4_combout $end
$var wire 1 X# transm|Mux0~5_combout $end
$var wire 1 Y# transm|Mux0~6_combout $end
$var wire 1 Z# transm|Mux0~7_combout $end
$var wire 1 [# transm|Mux0~8_combout $end
$var wire 1 \# transm|Mux0~9_combout $end
$var wire 1 ]# transm|Selector32~0_combout $end
$var wire 1 ^# transm|tx~q $end
$var wire 1 _# transm|pos [31] $end
$var wire 1 `# transm|pos [30] $end
$var wire 1 a# transm|pos [29] $end
$var wire 1 b# transm|pos [28] $end
$var wire 1 c# transm|pos [27] $end
$var wire 1 d# transm|pos [26] $end
$var wire 1 e# transm|pos [25] $end
$var wire 1 f# transm|pos [24] $end
$var wire 1 g# transm|pos [23] $end
$var wire 1 h# transm|pos [22] $end
$var wire 1 i# transm|pos [21] $end
$var wire 1 j# transm|pos [20] $end
$var wire 1 k# transm|pos [19] $end
$var wire 1 l# transm|pos [18] $end
$var wire 1 m# transm|pos [17] $end
$var wire 1 n# transm|pos [16] $end
$var wire 1 o# transm|pos [15] $end
$var wire 1 p# transm|pos [14] $end
$var wire 1 q# transm|pos [13] $end
$var wire 1 r# transm|pos [12] $end
$var wire 1 s# transm|pos [11] $end
$var wire 1 t# transm|pos [10] $end
$var wire 1 u# transm|pos [9] $end
$var wire 1 v# transm|pos [8] $end
$var wire 1 w# transm|pos [7] $end
$var wire 1 x# transm|pos [6] $end
$var wire 1 y# transm|pos [5] $end
$var wire 1 z# transm|pos [4] $end
$var wire 1 {# transm|pos [3] $end
$var wire 1 |# transm|pos [2] $end
$var wire 1 }# transm|pos [1] $end
$var wire 1 ~# transm|pos [0] $end
$var wire 1 !$ recep|data [15] $end
$var wire 1 "$ recep|data [14] $end
$var wire 1 #$ recep|data [13] $end
$var wire 1 $$ recep|data [12] $end
$var wire 1 %$ recep|data [11] $end
$var wire 1 &$ recep|data [10] $end
$var wire 1 '$ recep|data [9] $end
$var wire 1 ($ recep|data [8] $end
$var wire 1 )$ recep|data [7] $end
$var wire 1 *$ recep|data [6] $end
$var wire 1 +$ recep|data [5] $end
$var wire 1 ,$ recep|data [4] $end
$var wire 1 -$ recep|data [3] $end
$var wire 1 .$ recep|data [2] $end
$var wire 1 /$ recep|data [1] $end
$var wire 1 0$ recep|data [0] $end
$var wire 1 1$ recep|pos [31] $end
$var wire 1 2$ recep|pos [30] $end
$var wire 1 3$ recep|pos [29] $end
$var wire 1 4$ recep|pos [28] $end
$var wire 1 5$ recep|pos [27] $end
$var wire 1 6$ recep|pos [26] $end
$var wire 1 7$ recep|pos [25] $end
$var wire 1 8$ recep|pos [24] $end
$var wire 1 9$ recep|pos [23] $end
$var wire 1 :$ recep|pos [22] $end
$var wire 1 ;$ recep|pos [21] $end
$var wire 1 <$ recep|pos [20] $end
$var wire 1 =$ recep|pos [19] $end
$var wire 1 >$ recep|pos [18] $end
$var wire 1 ?$ recep|pos [17] $end
$var wire 1 @$ recep|pos [16] $end
$var wire 1 A$ recep|pos [15] $end
$var wire 1 B$ recep|pos [14] $end
$var wire 1 C$ recep|pos [13] $end
$var wire 1 D$ recep|pos [12] $end
$var wire 1 E$ recep|pos [11] $end
$var wire 1 F$ recep|pos [10] $end
$var wire 1 G$ recep|pos [9] $end
$var wire 1 H$ recep|pos [8] $end
$var wire 1 I$ recep|pos [7] $end
$var wire 1 J$ recep|pos [6] $end
$var wire 1 K$ recep|pos [5] $end
$var wire 1 L$ recep|pos [4] $end
$var wire 1 M$ recep|pos [3] $end
$var wire 1 N$ recep|pos [2] $end
$var wire 1 O$ recep|pos [1] $end
$var wire 1 P$ recep|pos [0] $end
$upscope $end
$upscope $end
$enddefinitions $end
#0
$dumpvars
0!
0"
1#
0$
0%
0-
0,
0+
0*
0)
0(
0'
0&
1.
0/
10
x1
12
13
14
05
06
07
08
09
0:
0;
0<
0=
0>
1?
0@
0A
0B
1C
0D
0E
0F
0G
1H
0I
0J
0K
0L
0M
1N
0O
0P
0Q
0R
0S
1T
0U
0V
0W
0X
0Y
1Z
0[
0\
0]
1^
0_
0`
0a
0b
0c
1d
0e
0f
0g
0h
0i
1j
0k
0l
0m
0n
0o
1p
0q
0r
0s
0t
0u
1v
0w
0x
0y
0z
0{
1|
0}
0~
0!!
0"!
0#!
1$!
0%!
0&!
0'!
0(!
0)!
1*!
0+!
0,!
1-!
1.!
0/!
00!
01!
02!
13!
04!
05!
06!
07!
08!
19!
0:!
0;!
1<!
0=!
0>!
0?!
1@!
0A!
0B!
0C!
0D!
0E!
1F!
1G!
1H!
1I!
1J!
1K!
0L!
0M!
0N!
1O!
0P!
1Q!
1R!
0S!
1T!
1U!
0V!
0W!
0X!
0Y!
0Z!
1[!
0\!
0]!
1^!
0_!
0`!
0a!
0b!
0c!
0d!
0e!
0f!
0g!
0h!
0i!
0j!
0k!
0l!
0m!
0n!
0o!
0p!
0q!
0r!
0s!
0t!
0u!
0v!
0w!
0x!
0y!
0z!
0{!
0|!
0}!
1~!
1!"
0""
0#"
1$"
0%"
1&"
1'"
0("
0)"
0*"
0+"
1,"
0-"
0."
0/"
00"
01"
12"
03"
04"
05"
06"
07"
18"
09"
0:"
0;"
0<"
0="
1>"
0?"
0@"
0A"
0B"
0C"
1D"
0E"
0F"
0G"
0H"
0I"
1J"
0K"
0L"
0M"
0N"
0O"
1P"
0Q"
0R"
0S"
0T"
0U"
1V"
0W"
0X"
0Y"
0Z"
0["
1\"
0]"
0^"
0_"
0`"
0a"
1b"
0c"
0d"
0e"
0f"
0g"
1h"
0i"
0j"
0k"
0l"
0m"
1n"
0o"
0p"
0q"
0r"
0s"
1t"
0u"
0v"
0w"
0x"
0y"
1z"
0{"
1|"
1}"
0~"
1!#
1"#
0##
0$#
0%#
0&#
1'#
0(#
0)#
0*#
0+#
0,#
0-#
0.#
0/#
00#
01#
02#
03#
04#
05#
06#
07#
18#
09#
1:#
1;#
1<#
1=#
1>#
1?#
1@#
1A#
0B#
0C#
0D#
0E#
0F#
1G#
0H#
0I#
0J#
0K#
0L#
1M#
1N#
0O#
0P#
0Q#
0R#
0S#
0T#
0U#
0V#
1W#
0X#
1Y#
1Z#
0[#
0\#
0]#
0^#
0~#
0}#
0|#
0{#
0z#
0y#
0x#
0w#
0v#
0u#
0t#
0s#
0r#
0q#
0p#
0o#
0n#
0m#
0l#
0k#
0j#
0i#
0h#
0g#
0f#
0e#
0d#
0c#
0b#
0a#
0`#
0_#
00$
0/$
0.$
0-$
0,$
0+$
0*$
0)$
0($
0'$
0&$
0%$
0$$
0#$
0"$
0!$
0P$
0O$
0N$
0M$
0L$
0K$
0J$
0I$
0H$
0G$
0F$
0E$
0D$
0C$
0B$
0A$
0@$
0?$
0>$
0=$
0<$
0;$
0:$
09$
08$
07$
06$
05$
04$
03$
02$
01$
$end
#10000
1"
1A
1B
#20000
0"
0A
0B
#30000
1"
1A
1B
#40000
0"
0A
0B
#50000
1"
1A
1B
#60000
0"
0A
0B
#70000
1"
1A
1B
#80000
0"
0A
0B
#90000
1"
1A
1B
#100000
0"
0A
0B
#110000
0#
1"
0[!
1A
1B
1c!
1\!
#120000
0"
0A
0B
#130000
1#
1"
1[!
1A
1B
0c!
0\!
1d!
1]!
1f!
1e!
1V!
1M!
1c!
1\!
1g!
1W!
1m!
1h!
1i!
#140000
0"
0A
0B
#150000
0#
1"
0[!
1A
1B
0i!
1P$
10$
17
1o!
0m!
1j!
0h!
1E
0C
1[#
1-
1F
0e!
1X!
1\#
1i!
0X!
1G
#160000
1!
0"
15
0A
0B
#170000
1#
1"
1[!
1A
1B
1k!
0P$
1O$
0o!
1m!
0j!
1h!
0E
1C
0N#
1l!
0.!
0H
0F
1H
1F
1e!
1I
0G
1n!
0k!
0I
1G
1J
0J
#180000
0"
0A
0B
#190000
1"
1A
1B
1P$
1.$
19
1o!
0m!
1j!
0h!
1E
0C
1+
0H
0F
0e!
1p!
1I
1X!
0G
0X!
1J
#200000
0"
0A
0B
#210000
0#
1"
0[!
1A
1B
0p!
0P$
1N$
0O$
1-$
1:
0o!
1m!
0j!
1h!
0E
1C
1q!
0l!
1K
0I
1H
1F
1*
0F
1e!
1L
0J
0K
1I
1G
1p!
0G
1P!
1M
0L
1J
1S!
0P!
0M
0S!
#220000
0"
0A
0B
#230000
1#
1"
1[!
1A
1B
1r!
1P$
1s!
1o!
0m!
1j!
0h!
1E
0C
1F
0e!
1t!
0r!
1G
#240000
0"
0A
0B
#250000
0#
1"
0[!
1A
1B
0t!
0P$
1O$
1+$
1<
0s!
0o!
1m!
0j!
1h!
0E
1C
1u!
0q!
0H
0F
1(
1H
1F
1e!
1K
0I
0G
1t!
0K
1I
1G
1L
0J
0L
1J
1P!
1M
0P!
0M
1S!
0S!
#260000
0"
0A
0B
#270000
1"
1A
1B
1P$
1o!
0m!
1j!
0h!
1E
0C
0H
0F
0e!
1K
0I
0G
1L
1X!
0J
1P!
1M
1S!
1_!
1Y!
1`!
1a!
1b!
0c!
#280000
0"
0A
0B
#290000
1#
1"
1[!
1A
1B
1w!
0P$
0d!
1Z!
1M$
0N$
0O$
1O#
0o!
0j!
1h!
0E
1C
0f!
0V!
0M
0M!
1K#
0N
0L
1N#
0u!
0K
1I
1H
1F
0\!
0K#
0F
0_!
0X!
0g!
0W!
1O
0P!
1N
1L
0I
1P#
0w!
1L#
0`!
0O#
0h!
0S!
0O
0L#
0Y!
0a!
1P!
0P#
0b!
1S!
#300000
0"
0A
0B
#310000
0#
1"
0[!
1A
1B
0]!
0Z!
1c!
1\!
#320000
0"
0A
0B
#330000
1"
1A
1B
1d!
1]!
1f!
1e!
1V!
1M
1M!
1g!
1W!
1O#
1h!
#340000
0"
0A
0B
#350000
1#
1"
1[!
1A
1B
1P#
1P$
0O#
1I#
1j!
0h!
1E
0C
1K#
1F
0e!
1_!
1X!
0P#
0_!
0X!
1G
1`!
1L#
1Y!
0`!
1a!
0Y!
0a!
1b!
0b!
0c!
1c!
#360000
0"
0A
0B
#370000
0#
1"
0[!
1A
1B
0L#
1'$
0P$
1O$
1O#
0I#
0j!
1h!
0E
1C
0N#
0K#
1l!
0H
0F
1H
1F
1e!
1I
0G
1L#
0I
1G
1J
0J
#380000
0"
0A
0B
#390000
1"
1A
1B
1P$
0O#
1I#
1j!
0h!
1E
0C
0H
0F
0e!
1I
1_!
1X!
0G
0_!
0X!
1J
1`!
1Y!
0`!
1a!
0Y!
0a!
1b!
0b!
0c!
1c!
#400000
0"
0A
0B
#410000
1#
1"
1[!
1A
1B
1J#
0P$
1N$
0O$
1O#
0I#
0j!
1h!
0E
1C
1q!
0l!
1K
0I
1H
1F
0F
1e!
0N
0L
0J
0K
1I
1G
1S#
0J#
0G
1O
0P!
0M
1N
1L
1J
1P
0S!
0O
1M
1P!
0P
1S!
#420000
0"
0A
0B
#430000
0#
1"
0[!
1A
1B
0S#
1$$
1P$
1X#
0O#
1I#
1s!
1j!
0h!
1E
0C
1F
0e!
1S#
1G
#440000
0"
0A
0B
#450000
1"
1A
1B
0P$
1O$
1O#
0I#
0s!
0j!
1h!
0E
1C
1u!
0q!
0H
0F
1H
1F
1e!
1K
0I
0G
0K
1I
1G
0N
0L
0J
1N
1L
1J
1O
0P!
0M
0O
1M
1P
0S!
1P!
0P
1S!
#460000
0"
0A
0B
#470000
1"
1A
1B
1P$
0O#
1I#
1j!
0h!
1E
0C
0H
0F
0e!
1K
0I
0G
0N
0L
1_!
1X!
0J
1O
0P!
0M
1`!
1Y!
1P!
1P
0S!
1a!
1S!
0_!
1b!
0Y!
1_!
0`!
1Y!
0c!
1`!
0a!
1a!
0b!
1b!
1c!
0c!
#480000
0"
0A
0B
#490000
1#
1"
1[!
1A
1B
1U#
0P$
0d!
1Z!
1L$
0M$
0N$
0O$
0I#
1m!
0j!
1h!
0E
1C
0f!
0V!
0P
0M!
1Q
0O
1.!
1N
1L
1N#
0u!
0K
1I
1H
1F
0\!
0F
0_!
0X!
0g!
0W!
1R
1/!
0Q
1O
0L
0I
0U#
0`!
0m!
0h!
0P!
1L!
0R
0Y!
0a!
0S!
1P!
1x!
0b!
1S!
#500000
0"
0A
0B
#510000
1"
1A
1B
0]!
0Z!
1y!
1@
1M!
1%
0x!
1E#
1z!
#520000
0"
0A
0B
#530000
1"
1A
1B
1F#
1{!
0L$
0y!
0@
08#
0/!
0O
0%
1]#
0z!
14#
0L!
0P!
0M!
0S!
#540000
0"
0A
0B
#550000
1"
1A
1B
1^#
15#
0{!
0?
1}!
18#
0.
0]#
#560000
0"
0A
0B
#570000
1"
1A
1B
0^#
1~#
1?
0Z#
0W#
1R#
0G#
0@#
0~!
1|!
1.
0[#
0X#
1H#
0!"
1+#
0}!
0\#
0+#
1""
1]#
#580000
0"
0A
0B
#590000
1"
1A
1B
1^#
1}#
0~#
0?
0M#
0H#
1#"
1!"
1[#
0R#
1~!
0|!
0.
1\#
0$"
0""
0#"
0!"
1}!
1%"
1$"
1""
0]#
0%"
#600000
0"
0A
0B
#610000
0!
1"
05
1A
1B
0^#
1~#
1?
0[#
1Z#
0~!
1|!
1.
0\#
1[#
1#"
1!"
0}!
1\#
0$"
1+#
0""
1]#
0+#
1%"
0]#
#620000
0"
0A
0B
#630000
1"
1A
1B
1|#
0}#
0~#
0Y#
0&"
1$"
1W#
1M#
1H#
1G#
1@#
0#"
0!"
1~!
0|!
0'"
0%"
1X#
0H#
1&"
0$"
1""
1!"
1}!
1("
0\#
1'"
1%"
0""
0("
1]#
#640000
0"
0A
0B
#650000
1"
1A
1B
1^#
1~#
0?
0Z#
0W#
1R#
0G#
0@#
0~!
1|!
0.
0[#
0X#
1H#
0!"
0}!
1\#
1""
0]#
#660000
0"
0A
0B
#670000
1"
1A
1B
0^#
1}#
0~#
1?
0M#
0H#
1#"
1!"
1[#
0R#
1~!
0|!
1.
0\#
0&"
1$"
0""
0#"
0!"
1}!
0'"
0%"
1&"
0$"
1""
1]#
1("
1'"
1%"
0("
#680000
0"
0A
0B
#690000
1"
1A
1B
1^#
1~#
0?
0[#
1Z#
0~!
1|!
0.
1[#
1#"
1!"
0}!
0&"
1$"
0""
0'"
1+#
0%"
0+#
1~"
1("
1##
1$#
1%#
1&#
1(#
16#
04#
#700000
0"
0A
0B
